

[2018-07-25 17:27:28][0,0] : Log session started
[2018-07-25 17:27:28][0,0] : SetSteamID( [A:1:0:0] )
[2018-07-25 17:27:28][1,2] : Connect() starting connection (eNetQOSLevelLow, 72.165.61.187:27017, UDP)
[2018-07-25 17:27:33][1,2] : ConnectFailed('Connection Failed') (72.165.61.187:27017, UDP)
[2018-07-25 17:27:33][0,0] : StartAutoReconnect() will start in 6 seconds
[2018-07-25 17:27:39][1,6] : Connect() starting connection (eNetQOSLevelMedium, 72.165.61.187:27017, UDP)
[2018-07-25 17:27:44][1,6] : ConnectFailed('Connection Failed') (72.165.61.187:27017, UDP)
[2018-07-25 17:27:44][0,0] : StartAutoReconnect() will start in 5 seconds
[2018-07-25 17:27:49][1,8] : Connect() starting connection (eNetQOSLevelMedium, 72.165.61.187:27017, UDP)
[2018-07-25 17:27:54][1,8] : ConnectFailed('Connection Failed') (72.165.61.187:27017, UDP)
[2018-07-25 17:27:54][0,0] : StartAutoReconnect() will start in 4 seconds
[2018-07-25 17:27:58][1,10] : Connect() starting connection (eNetQOSLevelMedium, 72.165.61.187:27017, UDP)
[2018-07-25 17:28:03][1,10] : ConnectFailed('Connection Failed') (72.165.61.187:27017, UDP)
[2018-07-25 17:28:03][0,0] : StartAutoReconnect() will start in 8 seconds
[2018-07-25 17:28:11][1,11] : Connect() starting connection (eNetQOSLevelMedium, 72.165.61.187:27017, TCP)
[2018-07-25 17:28:11][1,11] : ConnectFailed('Invalid State') (72.165.61.187:27017, TCP)
[2018-07-25 17:28:11][0,0] : StartAutoReconnect() will start in 6 seconds
[2018-07-25 17:28:17][1,13] : Connect() starting connection (eNetQOSLevelMedium, 72.165.61.187:27017, TCP)
[2018-07-25 17:28:17][1,13] : ConnectFailed('Invalid State') (72.165.61.187:27017, TCP)
[2018-07-25 17:28:17][0,0] : StartAutoReconnect() will start in 8 seconds
[2018-07-25 17:28:25][1,16] : Connect() starting connection (eNetQOSLevelMedium, 72.165.61.187:27017, UDP)
[2018-07-25 17:28:30][1,16] : ConnectFailed('Connection Failed') (72.165.61.187:27017, UDP)
[2018-07-25 17:28:30][0,0] : StartAutoReconnect() will start in 22 seconds
[2018-07-25 17:28:52][1,18] : Connect() starting connection (eNetQOSLevelMedium, 72.165.61.187:27017, UDP)
[2018-07-25 17:28:57][1,18] : ConnectFailed('Connection Failed') (72.165.61.187:27017, UDP)
[2018-07-25 17:28:57][0,0] : StartAutoReconnect() will start in 12 seconds
[2018-07-25 17:29:09][1,20] : Connect() starting connection (eNetQOSLevelMedium, 72.165.61.187:27017, UDP)
[2018-07-25 17:29:14][1,20] : ConnectFailed('Connection Failed') (72.165.61.187:27017, UDP)
[2018-07-25 17:29:14][0,0] : StartAutoReconnect() will start in 27 seconds
[2018-07-25 17:29:41][1,22] : Connect() starting connection (eNetQOSLevelMedium, 72.165.61.187:27017, UDP)
[2018-07-25 17:29:46][1,22] : ConnectFailed('Connection Failed') (72.165.61.187:27017, UDP)
[2018-07-25 17:29:46][0,0] : StartAutoReconnect() will start in 43 seconds
[2018-07-25 17:30:29][1,23] : Connect() starting connection (eNetQOSLevelMedium, 72.165.61.187:27017, TCP)
[2018-07-25 17:30:29][1,23] : ConnectFailed('Invalid State') (72.165.61.187:27017, TCP)
[2018-07-25 17:30:29][0,0] : StartAutoReconnect() will start in 46 seconds
[2018-07-25 17:31:15][1,25] : Connect() starting connection (eNetQOSLevelMedium, 72.165.61.187:27017, TCP)
[2018-07-25 17:31:15][1,25] : ConnectFailed('Invalid State') (72.165.61.187:27017, TCP)
[2018-07-25 17:31:15][0,0] : StartAutoReconnect() will start in 59 seconds
[2018-07-25 17:32:14][1,28] : Connect() starting connection (eNetQOSLevelMedium, 72.165.61.187:27017, UDP)
[2018-07-25 17:32:19][1,28] : ConnectFailed('Connection Failed') (72.165.61.187:27017, UDP)
[2018-07-25 17:32:19][0,0] : StartAutoReconnect() will start in 140 seconds
[2018-07-25 17:34:39][1,30] : Connect() starting connection (eNetQOSLevelMedium, 72.165.61.187:27017, UDP)
[2018-07-25 17:34:44][1,30] : ConnectFailed('Connection Failed') (72.165.61.187:27017, UDP)
[2018-07-25 17:34:44][0,0] : StartAutoReconnect() will start in 95 seconds
[2018-07-25 17:36:19][1,32] : Connect() starting connection (eNetQOSLevelMedium, 72.165.61.187:27017, UDP)
[2018-07-25 17:36:24][1,32] : ConnectFailed('Connection Failed') (72.165.61.187:27017, UDP)
[2018-07-25 17:36:24][0,0] : StartAutoReconnect() will start in 116 seconds
[2018-07-25 17:38:20][1,34] : Connect() starting connection (eNetQOSLevelMedium, 72.165.61.187:27017, UDP)
[2018-07-25 17:38:26][1,34] : ConnectFailed('Connection Failed') (72.165.61.187:27017, UDP)
[2018-07-25 17:38:26][0,0] : StartAutoReconnect() will start in 99 seconds
[2018-07-25 17:40:05][1,35] : Connect() starting connection (eNetQOSLevelMedium, 72.165.61.187:27017, TCP)
[2018-07-25 17:40:05][1,35] : ConnectFailed('Invalid State') (72.165.61.187:27017, TCP)
[2018-07-25 17:40:05][0,0] : StartAutoReconnect() will start in 81 seconds
[2018-07-25 17:41:26][1,37] : Connect() starting connection (eNetQOSLevelMedium, 72.165.61.187:27017, TCP)
[2018-07-25 17:41:26][1,37] : ConnectFailed('Invalid State') (72.165.61.187:27017, TCP)
[2018-07-25 17:41:26][0,0] : StartAutoReconnect() will start in 167 seconds
[2018-07-25 17:44:13][1,40] : Connect() starting connection (eNetQOSLevelMedium, 72.165.61.187:27017, UDP)
[2018-07-25 17:44:18][1,40] : ConnectFailed('Connection Failed') (72.165.61.187:27017, UDP)
[2018-07-25 17:44:18][0,0] : StartAutoReconnect() will start in 178 seconds
[2018-07-25 17:47:16][1,42] : Connect() starting connection (eNetQOSLevelMedium, 72.165.61.187:27017, UDP)
[2018-07-25 17:47:21][1,42] : ConnectFailed('Connection Failed') (72.165.61.187:27017, UDP)
[2018-07-25 17:47:21][0,0] : StartAutoReconnect() will start in 156 seconds
[2018-07-25 17:49:57][1,44] : Connect() starting connection (eNetQOSLevelMedium, 72.165.61.187:27017, UDP)
[2018-07-25 17:50:02][1,44] : ConnectFailed('Connection Failed') (72.165.61.187:27017, UDP)
[2018-07-25 17:50:02][0,0] : StartAutoReconnect() will start in 154 seconds
[2018-07-25 17:52:36][1,46] : Connect() starting connection (eNetQOSLevelMedium, 72.165.61.187:27017, UDP)
[2018-07-25 17:52:41][1,46] : ConnectFailed('Connection Failed') (72.165.61.187:27017, UDP)
[2018-07-25 17:52:41][0,0] : StartAutoReconnect() will start in 150 seconds
[2018-07-25 17:55:11][1,47] : Connect() starting connection (eNetQOSLevelMedium, 72.165.61.187:27017, TCP)
[2018-07-25 17:55:11][1,47] : ConnectFailed('Invalid State') (72.165.61.187:27017, TCP)
[2018-07-25 17:55:11][0,0] : StartAutoReconnect() will start in 91 seconds
[2018-07-25 17:56:42][1,49] : Connect() starting connection (eNetQOSLevelMedium, 72.165.61.187:27017, TCP)
[2018-07-25 17:56:42][1,49] : ConnectFailed('Invalid State') (72.165.61.187:27017, TCP)
[2018-07-25 17:56:42][0,0] : StartAutoReconnect() will start in 108 seconds
[2018-07-25 17:58:30][1,52] : Connect() starting connection (eNetQOSLevelMedium, 72.165.61.187:27017, UDP)
[2018-07-25 17:58:35][1,52] : ConnectFailed('Connection Failed') (72.165.61.187:27017, UDP)
[2018-07-25 17:58:35][0,0] : StartAutoReconnect() will start in 62 seconds
[2018-07-25 17:59:37][1,54] : Connect() starting connection (eNetQOSLevelMedium, 72.165.61.187:27017, UDP)
[2018-07-25 17:59:42][1,54] : ConnectFailed('Connection Failed') (72.165.61.187:27017, UDP)
[2018-07-25 17:59:42][0,0] : StartAutoReconnect() will start in 80 seconds
[2018-07-25 18:01:02][1,56] : Connect() starting connection (eNetQOSLevelMedium, 72.165.61.187:27017, UDP)
[2018-07-25 18:01:07][1,56] : ConnectFailed('Connection Failed') (72.165.61.187:27017, UDP)
[2018-07-25 18:01:07][0,0] : StartAutoReconnect() will start in 107 seconds
[2018-07-25 18:02:54][1,58] : Connect() starting connection (eNetQOSLevelMedium, 72.165.61.187:27017, UDP)
[2018-07-25 18:02:59][1,58] : ConnectFailed('Connection Failed') (72.165.61.187:27017, UDP)
[2018-07-25 18:02:59][0,0] : StartAutoReconnect() will start in 139 seconds
[2018-07-25 18:05:18][1,59] : Connect() starting connection (eNetQOSLevelMedium, 72.165.61.187:27017, TCP)
[2018-07-25 18:05:18][1,59] : ConnectFailed('Invalid State') (72.165.61.187:27017, TCP)
[2018-07-25 18:05:18][0,0] : StartAutoReconnect() will start in 174 seconds
[2018-07-25 18:08:12][1,61] : Connect() starting connection (eNetQOSLevelMedium, 72.165.61.187:27017, TCP)
[2018-07-25 18:08:12][1,61] : ConnectFailed('Invalid State') (72.165.61.187:27017, TCP)
[2018-07-25 18:08:12][0,0] : StartAutoReconnect() will start in 112 seconds
[2018-07-25 18:10:04][1,64] : Connect() starting connection (eNetQOSLevelMedium, 72.165.61.187:27017, UDP)
[2018-07-25 18:10:09][1,64] : ConnectFailed('Connection Failed') (72.165.61.187:27017, UDP)
[2018-07-25 18:10:09][0,0] : StartAutoReconnect() will start in 163 seconds
[2018-07-25 18:12:52][1,66] : Connect() starting connection (eNetQOSLevelMedium, 72.165.61.187:27017, UDP)
[2018-07-25 18:12:57][1,66] : ConnectFailed('Connection Failed') (72.165.61.187:27017, UDP)
[2018-07-25 18:12:57][0,0] : StartAutoReconnect() will start in 128 seconds
[2018-07-25 18:15:05][1,68] : Connect() starting connection (eNetQOSLevelMedium, 72.165.61.187:27017, UDP)
[2018-07-25 18:15:10][1,68] : ConnectFailed('Connection Failed') (72.165.61.187:27017, UDP)
[2018-07-25 18:15:10][0,0] : StartAutoReconnect() will start in 157 seconds
[2018-07-25 18:17:47][1,70] : Connect() starting connection (eNetQOSLevelMedium, 72.165.61.187:27017, UDP)
[2018-07-25 18:17:52][1,70] : ConnectFailed('Connection Failed') (72.165.61.187:27017, UDP)
[2018-07-25 18:17:52][0,0] : StartAutoReconnect() will start in 64 seconds
[2018-07-25 18:18:56][1,71] : Connect() starting connection (eNetQOSLevelMedium, 72.165.61.187:27017, TCP)
[2018-07-25 18:18:56][1,71] : ConnectFailed('Invalid State') (72.165.61.187:27017, TCP)
[2018-07-25 18:18:56][0,0] : StartAutoReconnect() will start in 82 seconds
[2018-07-25 18:20:19][1,73] : Connect() starting connection (eNetQOSLevelMedium, 72.165.61.187:27017, TCP)
[2018-07-25 18:20:19][1,73] : ConnectFailed('Invalid State') (72.165.61.187:27017, TCP)
[2018-07-25 18:20:19][0,0] : StartAutoReconnect() will start in 130 seconds
[2018-07-25 18:22:29][1,76] : Connect() starting connection (eNetQOSLevelMedium, 72.165.61.187:27017, UDP)
[2018-07-25 18:22:34][1,76] : ConnectFailed('Connection Failed') (72.165.61.187:27017, UDP)
[2018-07-25 18:22:34][0,0] : StartAutoReconnect() will start in 90 seconds
[2018-07-25 18:24:04][1,78] : Connect() starting connection (eNetQOSLevelMedium, 72.165.61.187:27017, UDP)
[2018-07-25 18:24:09][1,78] : ConnectFailed('Connection Failed') (72.165.61.187:27017, UDP)
[2018-07-25 18:24:09][0,0] : StartAutoReconnect() will start in 67 seconds
[2018-07-25 18:25:16][1,80] : Connect() starting connection (eNetQOSLevelMedium, 72.165.61.187:27017, UDP)
[2018-07-25 18:25:21][1,80] : ConnectFailed('Connection Failed') (72.165.61.187:27017, UDP)
[2018-07-25 18:25:21][0,0] : StartAutoReconnect() will start in 110 seconds
[2018-07-25 18:27:11][1,82] : Connect() starting connection (eNetQOSLevelMedium, 72.165.61.187:27017, UDP)
[2018-07-25 18:27:16][1,82] : ConnectFailed('Connection Failed') (72.165.61.187:27017, UDP)
[2018-07-25 18:27:16][0,0] : StartAutoReconnect() will start in 106 seconds
[2018-07-25 18:29:02][1,83] : Connect() starting connection (eNetQOSLevelMedium, 72.165.61.187:27017, TCP)
[2018-07-25 18:29:02][1,83] : ConnectFailed('Invalid State') (72.165.61.187:27017, TCP)
[2018-07-25 18:29:02][0,0] : StartAutoReconnect() will start in 131 seconds
[2018-07-25 18:31:13][1,85] : Connect() starting connection (eNetQOSLevelMedium, 72.165.61.187:27017, TCP)
[2018-07-25 18:31:13][1,85] : ConnectFailed('Invalid State') (72.165.61.187:27017, TCP)
[2018-07-25 18:31:13][0,0] : StartAutoReconnect() will start in 87 seconds
[2018-07-25 18:32:40][1,88] : Connect() starting connection (eNetQOSLevelMedium, 72.165.61.187:27017, UDP)
[2018-07-25 18:32:45][1,88] : ConnectFailed('Connection Failed') (72.165.61.187:27017, UDP)
[2018-07-25 18:32:45][0,0] : StartAutoReconnect() will start in 124 seconds
[2018-07-25 18:34:49][1,90] : Connect() starting connection (eNetQOSLevelMedium, 72.165.61.187:27017, UDP)
[2018-07-25 18:34:54][1,90] : ConnectFailed('Connection Failed') (72.165.61.187:27017, UDP)
[2018-07-25 18:34:54][0,0] : StartAutoReconnect() will start in 92 seconds
[2018-07-25 18:36:26][1,92] : Connect() starting connection (eNetQOSLevelMedium, 72.165.61.187:27017, UDP)
[2018-07-25 18:36:31][1,92] : ConnectFailed('Connection Failed') (72.165.61.187:27017, UDP)
[2018-07-25 18:36:31][0,0] : StartAutoReconnect() will start in 171 seconds
[2018-07-25 18:39:22][1,94] : Connect() starting connection (eNetQOSLevelMedium, 72.165.61.187:27017, UDP)
[2018-07-25 18:39:27][1,94] : ConnectFailed('Connection Failed') (72.165.61.187:27017, UDP)
[2018-07-25 18:39:27][0,0] : StartAutoReconnect() will start in 107 seconds
[2018-07-25 18:41:14][1,95] : Connect() starting connection (eNetQOSLevelMedium, 72.165.61.187:27017, TCP)
[2018-07-25 18:41:14][1,95] : ConnectFailed('Invalid State') (72.165.61.187:27017, TCP)
[2018-07-25 18:41:14][0,0] : StartAutoReconnect() will start in 165 seconds
[2018-07-25 18:43:59][1,97] : Connect() starting connection (eNetQOSLevelMedium, 72.165.61.187:27017, TCP)
[2018-07-25 18:43:59][1,97] : ConnectFailed('Invalid State') (72.165.61.187:27017, TCP)


[2018-07-26 12:25:40][0,0] : Log session started
[2018-07-26 12:25:40][0,0] : SetSteamID( [A:1:0:0] )
[2018-07-26 12:25:40][1,2] : Connect() starting connection (eNetQOSLevelLow, 208.111.133.85:27017, UDP)
[2018-07-26 12:25:45][1,2] : ConnectFailed('Connection Failed') (208.111.133.85:27017, UDP)
[2018-07-26 12:25:45][0,0] : StartAutoReconnect() will start in 3 seconds
[2018-07-26 12:25:48][1,6] : Connect() starting connection (eNetQOSLevelMedium, 208.111.133.85:27017, UDP)
[2018-07-26 12:25:53][1,6] : ConnectFailed('Connection Failed') (208.111.133.85:27017, UDP)
[2018-07-26 12:25:53][0,0] : StartAutoReconnect() will start in 6 seconds
[2018-07-26 12:25:59][1,8] : Connect() starting connection (eNetQOSLevelMedium, 208.111.133.85:27017, UDP)
[2018-07-26 12:26:04][1,8] : ConnectFailed('Connection Failed') (208.111.133.85:27017, UDP)
[2018-07-26 12:26:04][0,0] : StartAutoReconnect() will start in 5 seconds
[2018-07-26 12:26:09][1,10] : Connect() starting connection (eNetQOSLevelMedium, 208.111.133.85:27017, UDP)
[2018-07-26 12:26:14][1,10] : ConnectFailed('Connection Failed') (208.111.133.85:27017, UDP)
[2018-07-26 12:26:14][0,0] : StartAutoReconnect() will start in 4 seconds
[2018-07-26 12:26:18][1,11] : Connect() starting connection (eNetQOSLevelLow, 208.111.133.85:27017, TCP)
[2018-07-26 12:26:18][1,11] : ConnectFailed('Invalid State') (208.111.133.85:27017, TCP)
[2018-07-26 12:26:18][0,0] : StartAutoReconnect() will start in 323 seconds
[2018-07-26 12:26:26][0,0] : ScheduleImmediateReconnect()
[2018-07-26 12:26:26][1,13] : Connect() starting connection (eNetQOSLevelMedium, 208.111.133.85:27017, TCP)
[2018-07-26 12:26:26][1,13] : ConnectFailed('Invalid State') (208.111.133.85:27017, TCP)
[2018-07-26 12:26:26][0,0] : StartAutoReconnect() will start in 2 seconds
[2018-07-26 12:26:29][1,16] : Connect() starting connection (eNetQOSLevelMedium, 208.111.133.85:27017, UDP)
[2018-07-26 12:26:34][1,16] : ConnectFailed('Connection Failed') (208.111.133.85:27017, UDP)
[2018-07-26 12:26:34][0,0] : StartAutoReconnect() will start in 7 seconds
[2018-07-26 12:26:41][1,18] : Connect() starting connection (eNetQOSLevelMedium, 208.111.133.85:27017, UDP)
[2018-07-26 12:26:46][1,18] : ConnectFailed('Connection Failed') (208.111.133.85:27017, UDP)
[2018-07-26 12:26:46][0,0] : StartAutoReconnect() will start in 6 seconds
[2018-07-26 12:26:52][1,20] : Connect() starting connection (eNetQOSLevelMedium, 208.111.133.85:27017, UDP)
[2018-07-26 12:26:57][1,20] : ConnectFailed('Connection Failed') (208.111.133.85:27017, UDP)
[2018-07-26 12:26:57][0,0] : StartAutoReconnect() will start in 9 seconds
[2018-07-26 12:27:06][1,22] : Connect() starting connection (eNetQOSLevelMedium, 208.111.133.85:27017, UDP)
[2018-07-26 12:27:11][1,22] : ConnectFailed('Connection Failed') (208.111.133.85:27017, UDP)
[2018-07-26 12:27:11][0,0] : StartAutoReconnect() will start in 11 seconds
[2018-07-26 12:27:22][1,23] : Connect() starting connection (eNetQOSLevelMedium, 208.111.133.85:27017, TCP)
[2018-07-26 12:27:22][1,23] : ConnectFailed('Invalid State') (208.111.133.85:27017, TCP)
[2018-07-26 12:27:22][0,0] : StartAutoReconnect() will start in 9 seconds
[2018-07-26 12:27:31][1,25] : Connect() starting connection (eNetQOSLevelMedium, 208.111.133.85:27017, TCP)
[2018-07-26 12:27:31][1,25] : ConnectFailed('Invalid State') (208.111.133.85:27017, TCP)
[2018-07-26 12:27:31][0,0] : StartAutoReconnect() will start in 13 seconds
[2018-07-26 12:27:44][1,28] : Connect() starting connection (eNetQOSLevelMedium, 208.111.133.85:27017, UDP)
[2018-07-26 12:27:49][1,28] : ConnectFailed('Connection Failed') (208.111.133.85:27017, UDP)
[2018-07-26 12:27:49][0,0] : StartAutoReconnect() will start in 15 seconds
[2018-07-26 13:30:41][1,30] : Connect() starting connection (eNetQOSLevelLow, 208.111.133.85:27017, UDP)
[2018-07-26 13:30:46][1,30] : ConnectFailed('Connection Failed') (208.111.133.85:27017, UDP)
[2018-07-26 13:30:46][0,0] : StartAutoReconnect() will start in 588 seconds
[2018-07-26 13:36:22][0,0] : Log session ended


[2018-07-26 17:15:11][0,0] : Log session started
[2018-07-26 17:15:11][0,0] : SetSteamID( [A:1:0:0] )
[2018-07-26 17:15:11][1,2] : Connect() starting connection (eNetQOSLevelLow, 68.142.91.34:27017, UDP)
[2018-07-26 17:15:16][1,2] : ConnectFailed('Connection Failed') (68.142.91.34:27017, UDP)
[2018-07-26 17:15:16][0,0] : StartAutoReconnect() will start in 3 seconds
[2018-07-26 17:15:19][1,6] : Connect() starting connection (eNetQOSLevelMedium, 68.142.91.34:27017, UDP)
[2018-07-26 17:15:24][1,6] : ConnectFailed('Connection Failed') (68.142.91.34:27017, UDP)
[2018-07-26 17:15:24][0,0] : StartAutoReconnect() will start in 2 seconds
[2018-07-26 17:15:27][1,8] : Connect() starting connection (eNetQOSLevelMedium, 68.142.91.34:27017, UDP)
[2018-07-26 17:15:32][1,8] : ConnectFailed('Connection Failed') (68.142.91.34:27017, UDP)
[2018-07-26 17:15:32][0,0] : StartAutoReconnect() will start in 5 seconds
[2018-07-26 17:15:37][1,10] : Connect() starting connection (eNetQOSLevelMedium, 68.142.91.34:27017, UDP)
[2018-07-26 17:15:42][1,10] : ConnectFailed('Connection Failed') (68.142.91.34:27017, UDP)
[2018-07-26 17:15:42][0,0] : StartAutoReconnect() will start in 12 seconds
[2018-07-26 17:15:54][1,11] : Connect() starting connection (eNetQOSLevelMedium, 68.142.91.34:27017, TCP)
[2018-07-26 17:15:54][1,11] : ConnectFailed('Invalid State') (68.142.91.34:27017, TCP)
[2018-07-26 17:15:54][0,0] : StartAutoReconnect() will start in 12 seconds
[2018-07-26 17:16:06][1,13] : Connect() starting connection (eNetQOSLevelMedium, 68.142.91.34:27017, TCP)
[2018-07-26 17:16:06][1,13] : ConnectFailed('Invalid State') (68.142.91.34:27017, TCP)
[2018-07-26 17:16:06][0,0] : StartAutoReconnect() will start in 8 seconds
[2018-07-26 17:16:14][1,16] : Connect() starting connection (eNetQOSLevelMedium, 68.142.91.34:27017, UDP)
[2018-07-26 17:16:19][1,16] : ConnectFailed('Connection Failed') (68.142.91.34:27017, UDP)
[2018-07-26 17:16:19][0,0] : StartAutoReconnect() will start in 20 seconds
[2018-07-26 17:16:39][1,18] : Connect() starting connection (eNetQOSLevelMedium, 68.142.91.34:27017, UDP)
[2018-07-26 17:16:44][1,18] : ConnectFailed('Connection Failed') (68.142.91.34:27017, UDP)
[2018-07-26 17:16:44][0,0] : StartAutoReconnect() will start in 29 seconds
[2018-07-26 17:17:13][1,20] : Connect() starting connection (eNetQOSLevelMedium, 68.142.91.34:27017, UDP)
[2018-07-26 17:17:18][1,20] : ConnectFailed('Connection Failed') (68.142.91.34:27017, UDP)
[2018-07-26 17:17:18][0,0] : StartAutoReconnect() will start in 10 seconds
[2018-07-26 17:17:28][1,22] : Connect() starting connection (eNetQOSLevelMedium, 68.142.91.34:27017, UDP)
[2018-07-26 17:17:33][1,22] : ConnectFailed('Connection Failed') (68.142.91.34:27017, UDP)
[2018-07-26 17:17:33][0,0] : StartAutoReconnect() will start in 55 seconds
[2018-07-26 17:18:28][1,23] : Connect() starting connection (eNetQOSLevelMedium, 68.142.91.34:27017, TCP)
[2018-07-26 17:18:28][1,23] : ConnectFailed('Invalid State') (68.142.91.34:27017, TCP)
[2018-07-26 17:18:28][0,0] : StartAutoReconnect() will start in 41 seconds
[2018-07-26 17:19:09][1,25] : Connect() starting connection (eNetQOSLevelMedium, 68.142.91.34:27017, TCP)
[2018-07-26 17:19:09][1,25] : ConnectFailed('Invalid State') (68.142.91.34:27017, TCP)
[2018-07-26 17:19:09][0,0] : StartAutoReconnect() will start in 117 seconds
[2018-07-26 17:21:06][1,28] : Connect() starting connection (eNetQOSLevelMedium, 68.142.91.34:27017, UDP)
[2018-07-26 17:21:11][1,28] : ConnectFailed('Connection Failed') (68.142.91.34:27017, UDP)
[2018-07-26 17:21:11][0,0] : StartAutoReconnect() will start in 71 seconds
[2018-07-26 17:22:22][1,30] : Connect() starting connection (eNetQOSLevelMedium, 68.142.91.34:27017, UDP)
[2018-07-26 17:22:27][1,30] : ConnectFailed('Connection Failed') (68.142.91.34:27017, UDP)
[2018-07-26 17:22:27][0,0] : StartAutoReconnect() will start in 164 seconds
[2018-07-26 17:25:11][1,32] : Connect() starting connection (eNetQOSLevelMedium, 68.142.91.34:27017, UDP)
[2018-07-26 17:25:16][1,32] : ConnectFailed('Connection Failed') (68.142.91.34:27017, UDP)
[2018-07-26 17:25:16][0,0] : StartAutoReconnect() will start in 142 seconds
[2018-07-26 17:27:38][1,34] : Connect() starting connection (eNetQOSLevelMedium, 68.142.91.34:27017, UDP)
[2018-07-26 17:27:43][1,34] : ConnectFailed('Connection Failed') (68.142.91.34:27017, UDP)
[2018-07-26 17:27:43][0,0] : StartAutoReconnect() will start in 140 seconds
[2018-07-26 17:30:03][1,35] : Connect() starting connection (eNetQOSLevelMedium, 68.142.91.34:27017, TCP)
[2018-07-26 17:30:03][1,35] : ConnectFailed('Invalid State') (68.142.91.34:27017, TCP)
[2018-07-26 17:30:03][0,0] : StartAutoReconnect() will start in 87 seconds
[2018-07-26 17:31:30][1,37] : Connect() starting connection (eNetQOSLevelMedium, 68.142.91.34:27017, TCP)
[2018-07-26 17:31:30][1,37] : ConnectFailed('Invalid State') (68.142.91.34:27017, TCP)
[2018-07-26 17:31:30][0,0] : StartAutoReconnect() will start in 83 seconds
[2018-07-26 17:32:53][1,40] : Connect() starting connection (eNetQOSLevelMedium, 68.142.91.34:27017, UDP)
[2018-07-26 17:32:58][1,40] : ConnectFailed('Connection Failed') (68.142.91.34:27017, UDP)
[2018-07-26 17:32:58][0,0] : StartAutoReconnect() will start in 156 seconds
[2018-07-26 17:35:34][1,42] : Connect() starting connection (eNetQOSLevelMedium, 68.142.91.34:27017, UDP)
[2018-07-26 17:35:39][1,42] : ConnectFailed('Connection Failed') (68.142.91.34:27017, UDP)
[2018-07-26 17:35:39][0,0] : StartAutoReconnect() will start in 69 seconds
[2018-07-26 17:36:48][1,44] : Connect() starting connection (eNetQOSLevelMedium, 68.142.91.34:27017, UDP)
[2018-07-26 17:36:53][1,44] : ConnectFailed('Connection Failed') (68.142.91.34:27017, UDP)
[2018-07-26 17:36:53][0,0] : StartAutoReconnect() will start in 103 seconds
[2018-07-26 17:38:36][1,46] : Connect() starting connection (eNetQOSLevelMedium, 68.142.91.34:27017, UDP)
[2018-07-26 17:38:41][1,46] : ConnectFailed('Connection Failed') (68.142.91.34:27017, UDP)
[2018-07-26 17:38:41][0,0] : StartAutoReconnect() will start in 82 seconds
[2018-07-26 17:40:03][1,47] : Connect() starting connection (eNetQOSLevelMedium, 68.142.91.34:27017, TCP)
[2018-07-26 17:40:03][1,47] : ConnectFailed('Invalid State') (68.142.91.34:27017, TCP)
[2018-07-26 17:40:03][0,0] : StartAutoReconnect() will start in 106 seconds
[2018-07-26 17:41:50][1,49] : Connect() starting connection (eNetQOSLevelMedium, 68.142.91.34:27017, TCP)
[2018-07-26 17:41:50][1,49] : ConnectFailed('Invalid State') (68.142.91.34:27017, TCP)
[2018-07-26 17:41:50][0,0] : StartAutoReconnect() will start in 134 seconds
[2018-07-26 17:44:04][1,52] : Connect() starting connection (eNetQOSLevelMedium, 68.142.91.34:27017, UDP)
[2018-07-26 17:44:09][1,52] : ConnectFailed('Connection Failed') (68.142.91.34:27017, UDP)
[2018-07-26 17:44:09][0,0] : StartAutoReconnect() will start in 75 seconds
[2018-07-26 21:43:57][1,54] : Connect() starting connection (eNetQOSLevelLow, 68.142.91.34:27017, UDP)
[2018-07-26 21:44:02][1,54] : ConnectFailed('Connection Failed') (68.142.91.34:27017, UDP)
[2018-07-26 21:44:02][0,0] : StartAutoReconnect() will start in 525 seconds
[2018-07-26 21:52:47][1,56] : Connect() starting connection (eNetQOSLevelLow, 68.142.91.34:27017, UDP)
[2018-07-26 21:52:52][1,56] : ConnectFailed('Connection Failed') (68.142.91.34:27017, UDP)
[2018-07-26 21:52:52][0,0] : StartAutoReconnect() will start in 1299 seconds
[2018-07-26 22:14:31][1,58] : Connect() starting connection (eNetQOSLevelLow, 68.142.91.34:27017, UDP)
[2018-07-26 22:14:36][1,58] : ConnectFailed('Connection Failed') (68.142.91.34:27017, UDP)
[2018-07-26 22:14:36][0,0] : StartAutoReconnect() will start in 749 seconds
[2018-07-26 22:27:05][1,59] : Connect() starting connection (eNetQOSLevelLow, 68.142.91.34:27017, TCP)
[2018-07-26 22:27:05][1,59] : ConnectFailed('Invalid State') (68.142.91.34:27017, TCP)
[2018-07-26 22:27:05][0,0] : StartAutoReconnect() will start in 807 seconds
[2018-07-26 22:40:32][1,61] : Connect() starting connection (eNetQOSLevelLow, 68.142.91.34:27017, TCP)
[2018-07-26 22:40:32][1,61] : ConnectFailed('Invalid State') (68.142.91.34:27017, TCP)
[2018-07-26 22:40:32][0,0] : StartAutoReconnect() will start in 1039 seconds
[2018-07-26 22:57:51][1,64] : Connect() starting connection (eNetQOSLevelLow, 68.142.91.34:27017, UDP)
[2018-07-26 22:57:56][1,64] : ConnectFailed('Connection Failed') (68.142.91.34:27017, UDP)
[2018-07-26 22:57:56][0,0] : StartAutoReconnect() will start in 452 seconds
[2018-07-26 23:05:28][1,66] : Connect() starting connection (eNetQOSLevelLow, 68.142.91.34:27017, UDP)
[2018-07-26 23:05:33][1,66] : ConnectFailed('Connection Failed') (68.142.91.34:27017, UDP)
[2018-07-26 23:05:33][0,0] : StartAutoReconnect() will start in 1317 seconds
[2018-07-26 23:27:30][1,68] : Connect() starting connection (eNetQOSLevelLow, 68.142.91.34:27017, UDP)
[2018-07-26 23:27:35][1,68] : ConnectFailed('Connection Failed') (68.142.91.34:27017, UDP)
[2018-07-26 23:27:35][0,0] : StartAutoReconnect() will start in 800 seconds
[2018-07-27 08:25:58][1,70] : Connect() starting connection (eNetQOSLevelLow, 68.142.91.34:27017, UDP)
[2018-07-27 08:26:03][1,70] : ConnectFailed('Connection Failed') (68.142.91.34:27017, UDP)
[2018-07-27 08:26:03][0,0] : StartAutoReconnect() will start in 707 seconds
[2018-07-27 08:37:50][1,71] : Connect() starting connection (eNetQOSLevelLow, 68.142.91.34:27017, TCP)
[2018-07-27 08:37:50][1,71] : ConnectFailed('Invalid State') (68.142.91.34:27017, TCP)
[2018-07-27 08:37:50][0,0] : StartAutoReconnect() will start in 707 seconds
[2018-07-27 08:49:37][1,73] : Connect() starting connection (eNetQOSLevelLow, 68.142.91.34:27017, TCP)
[2018-07-27 08:49:37][1,73] : ConnectFailed('Invalid State') (68.142.91.34:27017, TCP)
[2018-07-27 08:49:37][0,0] : StartAutoReconnect() will start in 847 seconds
[2018-07-27 09:03:44][1,76] : Connect() starting connection (eNetQOSLevelLow, 68.142.91.34:27017, UDP)
[2018-07-27 09:03:49][1,76] : ConnectFailed('Connection Failed') (68.142.91.34:27017, UDP)
[2018-07-27 09:03:49][0,0] : StartAutoReconnect() will start in 663 seconds
[2018-07-27 09:14:52][1,78] : Connect() starting connection (eNetQOSLevelLow, 68.142.91.34:27017, UDP)
[2018-07-27 09:14:57][1,78] : ConnectFailed('Connection Failed') (68.142.91.34:27017, UDP)
[2018-07-27 09:14:57][0,0] : StartAutoReconnect() will start in 848 seconds
[2018-07-27 09:29:05][1,80] : Connect() starting connection (eNetQOSLevelLow, 68.142.91.34:27017, UDP)
[2018-07-27 09:29:10][1,80] : ConnectFailed('Connection Failed') (68.142.91.34:27017, UDP)
[2018-07-27 09:29:10][0,0] : StartAutoReconnect() will start in 876 seconds
[2018-07-27 09:36:41][0,0] : Log session ended


[2018-07-27 12:30:20][0,0] : Log session started
[2018-07-27 12:30:20][0,0] : SetSteamID( [A:1:0:0] )
[2018-07-27 12:30:20][1,2] : Connect() starting connection (eNetQOSLevelLow, 208.111.171.83:27017, UDP)
[2018-07-27 12:30:25][1,2] : ConnectFailed('Connection Failed') (208.111.171.83:27017, UDP)
[2018-07-27 12:30:25][0,0] : StartAutoReconnect() will start in 3 seconds
[2018-07-27 12:30:28][1,6] : Connect() starting connection (eNetQOSLevelMedium, 208.111.171.83:27017, UDP)
[2018-07-27 12:30:33][1,6] : ConnectFailed('Connection Failed') (208.111.171.83:27017, UDP)
[2018-07-27 12:30:33][0,0] : StartAutoReconnect() will start in 4 seconds
[2018-07-27 12:30:37][1,8] : Connect() starting connection (eNetQOSLevelMedium, 208.111.171.83:27017, UDP)
[2018-07-27 12:30:42][1,8] : ConnectFailed('Connection Failed') (208.111.171.83:27017, UDP)
[2018-07-27 12:30:42][0,0] : StartAutoReconnect() will start in 3 seconds
[2018-07-27 12:30:45][1,10] : Connect() starting connection (eNetQOSLevelMedium, 208.111.171.83:27017, UDP)
[2018-07-27 12:30:50][1,10] : ConnectFailed('Connection Failed') (208.111.171.83:27017, UDP)
[2018-07-27 12:30:50][0,0] : StartAutoReconnect() will start in 9 seconds
[2018-07-27 12:30:59][1,11] : Connect() starting connection (eNetQOSLevelMedium, 208.111.171.83:27017, TCP)
[2018-07-27 12:30:59][1,11] : ConnectFailed('Invalid State') (208.111.171.83:27017, TCP)
[2018-07-27 12:30:59][0,0] : StartAutoReconnect() will start in 12 seconds
[2018-07-27 12:31:11][1,13] : Connect() starting connection (eNetQOSLevelMedium, 208.111.171.83:27017, TCP)
[2018-07-27 12:31:11][1,13] : ConnectFailed('Invalid State') (208.111.171.83:27017, TCP)
[2018-07-27 12:31:11][0,0] : StartAutoReconnect() will start in 12 seconds
[2018-07-27 12:31:23][1,16] : Connect() starting connection (eNetQOSLevelMedium, 208.111.171.83:27017, UDP)
[2018-07-27 12:31:28][1,16] : ConnectFailed('Connection Failed') (208.111.171.83:27017, UDP)
[2018-07-27 12:31:28][0,0] : StartAutoReconnect() will start in 13 seconds
[2018-07-27 12:31:41][1,18] : Connect() starting connection (eNetQOSLevelMedium, 208.111.171.83:27017, UDP)
[2018-07-27 12:31:46][1,18] : ConnectFailed('Connection Failed') (208.111.171.83:27017, UDP)
[2018-07-27 12:31:46][0,0] : StartAutoReconnect() will start in 13 seconds
[2018-07-27 12:31:59][1,20] : Connect() starting connection (eNetQOSLevelMedium, 208.111.171.83:27017, UDP)
[2018-07-27 12:32:04][1,20] : ConnectFailed('Connection Failed') (208.111.171.83:27017, UDP)
[2018-07-27 12:32:04][0,0] : StartAutoReconnect() will start in 25 seconds
[2018-07-27 12:32:29][1,22] : Connect() starting connection (eNetQOSLevelMedium, 208.111.171.83:27017, UDP)
[2018-07-27 12:32:34][1,22] : ConnectFailed('Connection Failed') (208.111.171.83:27017, UDP)
[2018-07-27 12:32:34][0,0] : StartAutoReconnect() will start in 28 seconds
[2018-07-27 12:33:02][1,23] : Connect() starting connection (eNetQOSLevelMedium, 208.111.171.83:27017, TCP)
[2018-07-27 12:33:02][1,23] : ConnectFailed('Invalid State') (208.111.171.83:27017, TCP)
[2018-07-27 12:33:02][0,0] : StartAutoReconnect() will start in 80 seconds
[2018-07-27 12:34:22][1,25] : Connect() starting connection (eNetQOSLevelMedium, 208.111.171.83:27017, TCP)
[2018-07-27 12:34:22][1,25] : ConnectFailed('Invalid State') (208.111.171.83:27017, TCP)
[2018-07-27 12:34:22][0,0] : StartAutoReconnect() will start in 67 seconds
[2018-07-27 12:35:29][1,28] : Connect() starting connection (eNetQOSLevelMedium, 208.111.171.83:27017, UDP)
[2018-07-27 12:35:34][1,28] : ConnectFailed('Connection Failed') (208.111.171.83:27017, UDP)
[2018-07-27 12:35:34][0,0] : StartAutoReconnect() will start in 122 seconds
[2018-07-27 12:37:36][1,30] : Connect() starting connection (eNetQOSLevelMedium, 208.111.171.83:27017, UDP)
[2018-07-27 12:37:41][1,30] : ConnectFailed('Connection Failed') (208.111.171.83:27017, UDP)
[2018-07-27 12:37:41][0,0] : StartAutoReconnect() will start in 69 seconds
[2018-07-27 12:38:50][1,32] : Connect() starting connection (eNetQOSLevelMedium, 208.111.171.83:27017, UDP)
[2018-07-27 12:38:55][1,32] : ConnectFailed('Connection Failed') (208.111.171.83:27017, UDP)
[2018-07-27 12:38:55][0,0] : StartAutoReconnect() will start in 167 seconds
[2018-07-27 12:41:42][1,34] : Connect() starting connection (eNetQOSLevelMedium, 208.111.171.83:27017, UDP)
[2018-07-27 12:41:47][1,34] : ConnectFailed('Connection Failed') (208.111.171.83:27017, UDP)
[2018-07-27 12:41:47][0,0] : StartAutoReconnect() will start in 157 seconds
[2018-07-27 12:44:24][1,35] : Connect() starting connection (eNetQOSLevelMedium, 208.111.171.83:27017, TCP)
[2018-07-27 12:44:24][1,35] : ConnectFailed('Invalid State') (208.111.171.83:27017, TCP)
[2018-07-27 12:44:24][0,0] : StartAutoReconnect() will start in 95 seconds
[2018-07-27 12:46:00][1,37] : Connect() starting connection (eNetQOSLevelMedium, 208.111.171.83:27017, TCP)
[2018-07-27 12:46:00][1,37] : ConnectFailed('Invalid State') (208.111.171.83:27017, TCP)
[2018-07-27 12:46:00][0,0] : StartAutoReconnect() will start in 88 seconds
[2018-07-27 12:47:28][1,40] : Connect() starting connection (eNetQOSLevelMedium, 208.111.171.83:27017, UDP)
[2018-07-27 12:47:33][1,40] : ConnectFailed('Connection Failed') (208.111.171.83:27017, UDP)
[2018-07-27 12:47:33][0,0] : StartAutoReconnect() will start in 156 seconds
[2018-07-27 12:50:09][1,42] : Connect() starting connection (eNetQOSLevelMedium, 208.111.171.83:27017, UDP)
[2018-07-27 12:50:14][1,42] : ConnectFailed('Connection Failed') (208.111.171.83:27017, UDP)
[2018-07-27 12:50:14][0,0] : StartAutoReconnect() will start in 162 seconds
[2018-07-27 12:52:56][1,44] : Connect() starting connection (eNetQOSLevelMedium, 208.111.171.83:27017, UDP)
[2018-07-27 12:53:01][1,44] : ConnectFailed('Connection Failed') (208.111.171.83:27017, UDP)
[2018-07-27 12:53:01][0,0] : StartAutoReconnect() will start in 139 seconds
[2018-07-27 12:55:20][1,46] : Connect() starting connection (eNetQOSLevelMedium, 208.111.171.83:27017, UDP)
[2018-07-27 12:55:25][1,46] : ConnectFailed('Connection Failed') (208.111.171.83:27017, UDP)
[2018-07-27 12:55:25][0,0] : StartAutoReconnect() will start in 64 seconds
[2018-07-27 12:56:29][1,47] : Connect() starting connection (eNetQOSLevelMedium, 208.111.171.83:27017, TCP)
[2018-07-27 12:56:29][1,47] : ConnectFailed('Invalid State') (208.111.171.83:27017, TCP)
[2018-07-27 12:56:29][0,0] : StartAutoReconnect() will start in 72 seconds
[2018-07-27 12:57:41][1,49] : Connect() starting connection (eNetQOSLevelMedium, 208.111.171.83:27017, TCP)
[2018-07-27 12:57:41][1,49] : ConnectFailed('Invalid State') (208.111.171.83:27017, TCP)
[2018-07-27 12:57:41][0,0] : StartAutoReconnect() will start in 101 seconds
[2018-07-27 12:59:22][1,52] : Connect() starting connection (eNetQOSLevelMedium, 208.111.171.83:27017, UDP)
[2018-07-27 12:59:27][1,52] : ConnectFailed('Connection Failed') (208.111.171.83:27017, UDP)


[2018-07-27 17:23:12][0,0] : Log session started
[2018-07-27 17:23:12][0,0] : SetSteamID( [A:1:0:0] )
[2018-07-27 17:23:12][1,2] : Connect() starting connection (eNetQOSLevelLow, 208.111.133.84:27017, UDP)
[2018-07-27 17:23:17][1,2] : ConnectFailed('Connection Failed') (208.111.133.84:27017, UDP)
[2018-07-27 17:23:17][0,0] : StartAutoReconnect() will start in 2 seconds
[2018-07-27 17:23:19][1,6] : Connect() starting connection (eNetQOSLevelMedium, 208.111.133.84:27017, UDP)
[2018-07-27 17:23:24][1,6] : ConnectFailed('Connection Failed') (208.111.133.84:27017, UDP)
[2018-07-27 17:23:24][0,0] : StartAutoReconnect() will start in 7 seconds
[2018-07-27 17:23:31][1,8] : Connect() starting connection (eNetQOSLevelMedium, 208.111.133.84:27017, UDP)
[2018-07-27 17:23:36][1,8] : ConnectFailed('Connection Failed') (208.111.133.84:27017, UDP)
[2018-07-27 17:23:36][0,0] : StartAutoReconnect() will start in 4 seconds
[2018-07-27 17:23:40][1,10] : Connect() starting connection (eNetQOSLevelMedium, 208.111.133.84:27017, UDP)
[2018-07-27 17:23:45][1,10] : ConnectFailed('Connection Failed') (208.111.133.84:27017, UDP)
[2018-07-27 17:23:45][0,0] : StartAutoReconnect() will start in 14 seconds
[2018-07-27 17:23:59][1,11] : Connect() starting connection (eNetQOSLevelMedium, 208.111.133.84:27017, TCP)
[2018-07-27 17:23:59][1,11] : ConnectFailed('Invalid State') (208.111.133.84:27017, TCP)
[2018-07-27 17:23:59][0,0] : StartAutoReconnect() will start in 8 seconds
[2018-07-27 17:24:07][1,13] : Connect() starting connection (eNetQOSLevelMedium, 208.111.133.84:27017, TCP)
[2018-07-27 17:24:07][1,13] : ConnectFailed('Invalid State') (208.111.133.84:27017, TCP)
[2018-07-27 17:24:07][0,0] : StartAutoReconnect() will start in 12 seconds
[2018-07-27 17:24:19][1,16] : Connect() starting connection (eNetQOSLevelMedium, 208.111.133.84:27017, UDP)
[2018-07-27 17:24:24][1,16] : ConnectFailed('Connection Failed') (208.111.133.84:27017, UDP)
[2018-07-27 17:24:24][0,0] : StartAutoReconnect() will start in 11 seconds
[2018-07-27 17:24:35][1,18] : Connect() starting connection (eNetQOSLevelMedium, 208.111.133.84:27017, UDP)
[2018-07-27 17:24:40][1,18] : ConnectFailed('Connection Failed') (208.111.133.84:27017, UDP)
[2018-07-27 17:24:40][0,0] : StartAutoReconnect() will start in 26 seconds
[2018-07-27 17:25:06][1,20] : Connect() starting connection (eNetQOSLevelMedium, 208.111.133.84:27017, UDP)
[2018-07-27 17:25:11][1,20] : ConnectFailed('Connection Failed') (208.111.133.84:27017, UDP)
[2018-07-27 17:25:11][0,0] : StartAutoReconnect() will start in 10 seconds
[2018-07-27 17:25:21][1,22] : Connect() starting connection (eNetQOSLevelMedium, 208.111.133.84:27017, UDP)
[2018-07-27 17:25:26][1,22] : ConnectFailed('Connection Failed') (208.111.133.84:27017, UDP)
[2018-07-27 17:25:26][0,0] : StartAutoReconnect() will start in 32 seconds
[2018-07-27 17:25:58][1,23] : Connect() starting connection (eNetQOSLevelMedium, 208.111.133.84:27017, TCP)
[2018-07-27 17:25:58][1,23] : ConnectFailed('Invalid State') (208.111.133.84:27017, TCP)
[2018-07-27 17:25:58][0,0] : StartAutoReconnect() will start in 73 seconds
[2018-07-27 17:27:11][1,25] : Connect() starting connection (eNetQOSLevelMedium, 208.111.133.84:27017, TCP)
[2018-07-27 17:27:11][1,25] : ConnectFailed('Invalid State') (208.111.133.84:27017, TCP)
[2018-07-27 17:27:11][0,0] : StartAutoReconnect() will start in 114 seconds
[2018-07-27 17:29:05][1,28] : Connect() starting connection (eNetQOSLevelMedium, 208.111.133.84:27017, UDP)
[2018-07-27 17:29:10][1,28] : ConnectFailed('Connection Failed') (208.111.133.84:27017, UDP)
[2018-07-27 17:29:10][0,0] : StartAutoReconnect() will start in 157 seconds
[2018-07-27 17:31:47][1,30] : Connect() starting connection (eNetQOSLevelMedium, 208.111.133.84:27017, UDP)
[2018-07-27 17:31:52][1,30] : ConnectFailed('Connection Failed') (208.111.133.84:27017, UDP)
[2018-07-27 17:31:52][0,0] : StartAutoReconnect() will start in 73 seconds
[2018-07-27 17:33:05][1,32] : Connect() starting connection (eNetQOSLevelMedium, 208.111.133.84:27017, UDP)
[2018-07-27 17:33:10][1,32] : ConnectFailed('Connection Failed') (208.111.133.84:27017, UDP)
[2018-07-27 17:33:10][0,0] : StartAutoReconnect() will start in 81 seconds
[2018-07-27 17:34:31][1,34] : Connect() starting connection (eNetQOSLevelLow, 208.111.133.84:27017, UDP)
[2018-07-27 17:34:36][1,34] : ConnectFailed('Connection Failed') (208.111.133.84:27017, UDP)
[2018-07-27 17:34:36][0,0] : StartAutoReconnect() will start in 500 seconds
[2018-07-27 17:42:56][1,35] : Connect() starting connection (eNetQOSLevelLow, 208.111.133.84:27017, TCP)
[2018-07-27 17:42:56][1,35] : ConnectFailed('Invalid State') (208.111.133.84:27017, TCP)
[2018-07-27 17:42:56][0,0] : StartAutoReconnect() will start in 1316 seconds
[2018-07-27 17:50:55][0,0] : ScheduleImmediateReconnect()
[2018-07-27 17:50:55][1,37] : Connect() starting connection (eNetQOSLevelMedium, 208.111.133.84:27017, TCP)
[2018-07-27 17:50:55][1,37] : ConnectFailed('Invalid State') (208.111.133.84:27017, TCP)
[2018-07-27 17:50:55][0,0] : StartAutoReconnect() will start in 3 seconds
[2018-07-27 17:50:58][1,40] : Connect() starting connection (eNetQOSLevelMedium, 208.111.133.84:27017, UDP)
[2018-07-27 17:51:03][1,40] : ConnectFailed('Connection Failed') (208.111.133.84:27017, UDP)
[2018-07-27 17:51:03][0,0] : StartAutoReconnect() will start in 3 seconds
[2018-07-27 17:51:06][1,42] : Connect() starting connection (eNetQOSLevelMedium, 208.111.133.84:27017, UDP)
[2018-07-27 17:51:11][1,42] : ConnectFailed('Connection Failed') (208.111.133.84:27017, UDP)
[2018-07-27 17:51:11][0,0] : StartAutoReconnect() will start in 5 seconds
[2018-07-27 17:51:16][1,44] : Connect() starting connection (eNetQOSLevelMedium, 208.111.133.84:27017, UDP)
[2018-07-27 17:51:21][1,44] : ConnectFailed('Connection Failed') (208.111.133.84:27017, UDP)
[2018-07-27 17:51:21][0,0] : StartAutoReconnect() will start in 5 seconds
[2018-07-27 17:51:26][1,46] : Connect() starting connection (eNetQOSLevelMedium, 208.111.133.84:27017, UDP)
[2018-07-27 17:51:31][1,46] : ConnectFailed('Connection Failed') (208.111.133.84:27017, UDP)
[2018-07-27 17:51:31][0,0] : StartAutoReconnect() will start in 12 seconds
[2018-07-27 17:51:43][1,47] : Connect() starting connection (eNetQOSLevelMedium, 208.111.133.84:27017, TCP)
[2018-07-27 17:51:43][1,47] : ConnectFailed('Invalid State') (208.111.133.84:27017, TCP)
[2018-07-27 17:51:43][0,0] : StartAutoReconnect() will start in 10 seconds
[2018-07-27 17:51:53][1,49] : Connect() starting connection (eNetQOSLevelMedium, 208.111.133.84:27017, TCP)
[2018-07-27 17:51:53][1,49] : ConnectFailed('Invalid State') (208.111.133.84:27017, TCP)
[2018-07-27 17:51:53][0,0] : StartAutoReconnect() will start in 18 seconds
[2018-07-27 17:52:11][1,52] : Connect() starting connection (eNetQOSLevelMedium, 208.111.133.84:27017, UDP)
[2018-07-27 17:52:16][1,52] : ConnectFailed('Connection Failed') (208.111.133.84:27017, UDP)
[2018-07-27 17:52:16][0,0] : StartAutoReconnect() will start in 14 seconds
[2018-07-27 17:52:30][1,54] : Connect() starting connection (eNetQOSLevelMedium, 208.111.133.84:27017, UDP)
[2018-07-27 17:52:35][1,54] : ConnectFailed('Connection Failed') (208.111.133.84:27017, UDP)
[2018-07-27 17:52:35][0,0] : StartAutoReconnect() will start in 18 seconds
[2018-07-27 17:52:53][1,56] : Connect() starting connection (eNetQOSLevelMedium, 208.111.133.84:27017, UDP)
[2018-07-27 17:52:58][1,56] : ConnectFailed('Connection Failed') (208.111.133.84:27017, UDP)
[2018-07-27 17:52:58][0,0] : StartAutoReconnect() will start in 24 seconds
[2018-07-27 17:53:22][1,58] : Connect() starting connection (eNetQOSLevelMedium, 208.111.133.84:27017, UDP)
[2018-07-27 17:53:27][1,58] : ConnectFailed('Connection Failed') (208.111.133.84:27017, UDP)
[2018-07-27 17:53:27][0,0] : StartAutoReconnect() will start in 46 seconds
[2018-07-27 17:54:13][1,59] : Connect() starting connection (eNetQOSLevelMedium, 208.111.133.84:27017, TCP)
[2018-07-27 17:54:13][1,59] : ConnectFailed('Invalid State') (208.111.133.84:27017, TCP)
[2018-07-27 17:54:13][0,0] : StartAutoReconnect() will start in 113 seconds
[2018-07-27 17:56:07][1,61] : Connect() starting connection (eNetQOSLevelMedium, 208.111.133.84:27017, TCP)
[2018-07-27 17:56:07][1,61] : ConnectFailed('Invalid State') (208.111.133.84:27017, TCP)
[2018-07-27 17:56:07][0,0] : StartAutoReconnect() will start in 78 seconds
[2018-07-27 17:57:25][1,64] : Connect() starting connection (eNetQOSLevelMedium, 208.111.133.84:27017, UDP)
[2018-07-27 17:57:30][1,64] : ConnectFailed('Connection Failed') (208.111.133.84:27017, UDP)
[2018-07-27 17:57:30][0,0] : StartAutoReconnect() will start in 103 seconds
[2018-07-27 17:58:22][0,0] : Log session ended


[2018-07-27 18:01:39][0,0] : Log session started
[2018-07-27 18:01:39][0,0] : SetSteamID( [A:1:0:0] )
[2018-07-27 18:01:39][1,2] : Connect() starting connection (eNetQOSLevelLow, 208.111.171.83:27017, UDP)
[2018-07-27 18:01:44][1,2] : ConnectFailed('Connection Failed') (208.111.171.83:27017, UDP)
[2018-07-27 18:01:44][0,0] : StartAutoReconnect() will start in 3 seconds
[2018-07-27 18:01:47][1,6] : Connect() starting connection (eNetQOSLevelMedium, 208.111.171.83:27017, UDP)
[2018-07-27 18:01:52][1,6] : ConnectFailed('Connection Failed') (208.111.171.83:27017, UDP)
[2018-07-27 18:01:52][0,0] : StartAutoReconnect() will start in 4 seconds
[2018-07-27 18:01:56][1,8] : Connect() starting connection (eNetQOSLevelMedium, 208.111.171.83:27017, UDP)
[2018-07-27 18:02:01][1,8] : ConnectFailed('Connection Failed') (208.111.171.83:27017, UDP)
[2018-07-27 18:02:01][0,0] : StartAutoReconnect() will start in 3 seconds
[2018-07-27 18:02:04][1,10] : Connect() starting connection (eNetQOSLevelMedium, 208.111.171.83:27017, UDP)
[2018-07-27 18:02:09][1,10] : ConnectFailed('Connection Failed') (208.111.171.83:27017, UDP)
[2018-07-27 18:02:09][0,0] : StartAutoReconnect() will start in 9 seconds
[2018-07-27 18:02:18][1,11] : Connect() starting connection (eNetQOSLevelMedium, 208.111.171.83:27017, TCP)
[2018-07-27 18:02:18][1,11] : ConnectFailed('Invalid State') (208.111.171.83:27017, TCP)
[2018-07-27 18:02:18][0,0] : StartAutoReconnect() will start in 14 seconds
[2018-07-27 18:02:32][1,13] : Connect() starting connection (eNetQOSLevelMedium, 208.111.171.83:27017, TCP)
[2018-07-27 18:02:32][1,13] : ConnectFailed('Invalid State') (208.111.171.83:27017, TCP)
[2018-07-27 18:02:32][0,0] : StartAutoReconnect() will start in 9 seconds
[2018-07-27 18:02:41][1,16] : Connect() starting connection (eNetQOSLevelMedium, 208.111.171.83:27017, UDP)
[2018-07-27 18:02:46][1,16] : ConnectFailed('Connection Failed') (208.111.171.83:27017, UDP)
[2018-07-27 18:02:46][0,0] : StartAutoReconnect() will start in 17 seconds
[2018-07-27 18:03:03][1,18] : Connect() starting connection (eNetQOSLevelMedium, 208.111.171.83:27017, UDP)
[2018-07-27 18:03:08][1,18] : ConnectFailed('Connection Failed') (208.111.171.83:27017, UDP)
[2018-07-27 18:03:08][0,0] : StartAutoReconnect() will start in 21 seconds
[2018-07-27 18:03:29][1,20] : Connect() starting connection (eNetQOSLevelMedium, 208.111.171.83:27017, UDP)
[2018-07-27 18:03:34][1,20] : ConnectFailed('Connection Failed') (208.111.171.83:27017, UDP)
[2018-07-27 18:03:34][0,0] : StartAutoReconnect() will start in 23 seconds
[2018-07-27 18:03:57][1,22] : Connect() starting connection (eNetQOSLevelMedium, 208.111.171.83:27017, UDP)
[2018-07-27 18:04:02][1,22] : ConnectFailed('Connection Failed') (208.111.171.83:27017, UDP)
[2018-07-27 18:04:02][0,0] : StartAutoReconnect() will start in 42 seconds
[2018-07-27 18:04:44][1,23] : Connect() starting connection (eNetQOSLevelMedium, 208.111.171.83:27017, TCP)
[2018-07-27 18:04:44][1,23] : ConnectFailed('Invalid State') (208.111.171.83:27017, TCP)
[2018-07-27 18:04:44][0,0] : StartAutoReconnect() will start in 73 seconds
[2018-07-27 18:05:57][1,25] : Connect() starting connection (eNetQOSLevelMedium, 208.111.171.83:27017, TCP)
[2018-07-27 18:05:57][1,25] : ConnectFailed('Invalid State') (208.111.171.83:27017, TCP)
[2018-07-27 18:05:57][0,0] : StartAutoReconnect() will start in 97 seconds
[2018-07-27 18:07:34][1,28] : Connect() starting connection (eNetQOSLevelMedium, 208.111.171.83:27017, UDP)
[2018-07-27 18:07:39][1,28] : ConnectFailed('Connection Failed') (208.111.171.83:27017, UDP)
[2018-07-27 18:07:39][0,0] : StartAutoReconnect() will start in 161 seconds
[2018-07-27 18:10:20][1,30] : Connect() starting connection (eNetQOSLevelMedium, 208.111.171.83:27017, UDP)
[2018-07-27 18:10:25][1,30] : ConnectFailed('Connection Failed') (208.111.171.83:27017, UDP)
[2018-07-27 18:10:25][0,0] : StartAutoReconnect() will start in 130 seconds
[2018-07-27 18:12:35][1,32] : Connect() starting connection (eNetQOSLevelMedium, 208.111.171.83:27017, UDP)
[2018-07-27 18:12:40][1,32] : ConnectFailed('Connection Failed') (208.111.171.83:27017, UDP)
[2018-07-27 18:12:40][0,0] : StartAutoReconnect() will start in 147 seconds
[2018-07-27 18:15:07][1,34] : Connect() starting connection (eNetQOSLevelMedium, 208.111.171.83:27017, UDP)
[2018-07-27 18:15:12][1,34] : ConnectFailed('Connection Failed') (208.111.171.83:27017, UDP)
[2018-07-27 18:15:12][0,0] : StartAutoReconnect() will start in 177 seconds
[2018-07-27 18:18:09][1,35] : Connect() starting connection (eNetQOSLevelMedium, 208.111.171.83:27017, TCP)
[2018-07-27 18:18:09][1,35] : ConnectFailed('Invalid State') (208.111.171.83:27017, TCP)
[2018-07-27 18:18:09][0,0] : StartAutoReconnect() will start in 168 seconds
[2018-07-27 18:20:57][1,37] : Connect() starting connection (eNetQOSLevelMedium, 208.111.171.83:27017, TCP)
[2018-07-27 18:20:57][1,37] : ConnectFailed('Invalid State') (208.111.171.83:27017, TCP)
[2018-07-27 18:20:57][0,0] : StartAutoReconnect() will start in 66 seconds
[2018-07-27 18:22:03][1,40] : Connect() starting connection (eNetQOSLevelMedium, 208.111.171.83:27017, UDP)
[2018-07-27 18:22:08][1,40] : ConnectFailed('Connection Failed') (208.111.171.83:27017, UDP)
[2018-07-27 18:22:08][0,0] : StartAutoReconnect() will start in 153 seconds
[2018-07-27 18:24:42][1,42] : Connect() starting connection (eNetQOSLevelMedium, 208.111.171.83:27017, UDP)
[2018-07-27 18:24:47][1,42] : ConnectFailed('Connection Failed') (208.111.171.83:27017, UDP)
[2018-07-27 18:24:47][0,0] : StartAutoReconnect() will start in 112 seconds
[2018-07-27 18:26:39][1,44] : Connect() starting connection (eNetQOSLevelMedium, 208.111.171.83:27017, UDP)
[2018-07-27 18:26:44][1,44] : ConnectFailed('Connection Failed') (208.111.171.83:27017, UDP)
[2018-07-27 18:26:44][0,0] : StartAutoReconnect() will start in 124 seconds
[2018-07-27 18:28:48][1,46] : Connect() starting connection (eNetQOSLevelMedium, 208.111.171.83:27017, UDP)
[2018-07-27 18:28:53][1,46] : ConnectFailed('Connection Failed') (208.111.171.83:27017, UDP)
[2018-07-27 18:28:53][0,0] : StartAutoReconnect() will start in 99 seconds
[2018-07-27 18:30:32][1,47] : Connect() starting connection (eNetQOSLevelMedium, 208.111.171.83:27017, TCP)
[2018-07-27 18:30:32][1,47] : ConnectFailed('Invalid State') (208.111.171.83:27017, TCP)
[2018-07-27 18:30:32][0,0] : StartAutoReconnect() will start in 119 seconds
[2018-07-27 18:32:31][1,49] : Connect() starting connection (eNetQOSLevelMedium, 208.111.171.83:27017, TCP)
[2018-07-27 18:32:31][1,49] : ConnectFailed('Invalid State') (208.111.171.83:27017, TCP)
[2018-07-27 18:32:31][0,0] : StartAutoReconnect() will start in 117 seconds
[2018-07-27 18:34:28][1,52] : Connect() starting connection (eNetQOSLevelMedium, 208.111.171.83:27017, UDP)
[2018-07-27 18:34:33][1,52] : ConnectFailed('Connection Failed') (208.111.171.83:27017, UDP)
[2018-07-27 18:34:33][0,0] : StartAutoReconnect() will start in 126 seconds
[2018-07-27 18:36:39][1,54] : Connect() starting connection (eNetQOSLevelMedium, 208.111.171.83:27017, UDP)
[2018-07-27 18:36:44][1,54] : ConnectFailed('Connection Failed') (208.111.171.83:27017, UDP)
[2018-07-27 18:36:44][0,0] : StartAutoReconnect() will start in 75 seconds
[2018-07-27 18:37:59][1,56] : Connect() starting connection (eNetQOSLevelMedium, 208.111.171.83:27017, UDP)
[2018-07-27 18:38:04][1,56] : ConnectFailed('Connection Failed') (208.111.171.83:27017, UDP)
[2018-07-27 18:38:04][0,0] : StartAutoReconnect() will start in 111 seconds
[2018-07-27 18:39:55][1,58] : Connect() starting connection (eNetQOSLevelLow, 208.111.171.83:27017, UDP)
[2018-07-27 18:40:00][1,58] : ConnectFailed('Connection Failed') (208.111.171.83:27017, UDP)


[2018-07-28 11:46:00][0,0] : Log session started
[2018-07-28 11:46:00][0,0] : SetSteamID( [A:1:0:0] )
[2018-07-28 11:46:00][1,2] : Connect() starting connection (eNetQOSLevelLow, 208.111.158.53:27017, UDP)
[2018-07-28 11:46:05][1,2] : ConnectFailed('Connection Failed') (208.111.158.53:27017, UDP)
[2018-07-28 11:46:05][0,0] : StartAutoReconnect() will start in 3 seconds
[2018-07-28 11:46:08][1,6] : Connect() starting connection (eNetQOSLevelMedium, 208.111.158.53:27017, UDP)
[2018-07-28 11:46:13][1,6] : ConnectFailed('Connection Failed') (208.111.158.53:27017, UDP)
[2018-07-28 11:46:13][0,0] : StartAutoReconnect() will start in 7 seconds
[2018-07-28 11:46:20][1,8] : Connect() starting connection (eNetQOSLevelMedium, 208.111.158.53:27017, UDP)
[2018-07-28 11:46:25][1,8] : ConnectFailed('Connection Failed') (208.111.158.53:27017, UDP)
[2018-07-28 11:46:25][0,0] : StartAutoReconnect() will start in 2 seconds
[2018-07-28 11:46:27][1,10] : Connect() starting connection (eNetQOSLevelMedium, 208.111.158.53:27017, UDP)
[2018-07-28 11:46:32][1,10] : ConnectFailed('Connection Failed') (208.111.158.53:27017, UDP)
[2018-07-28 11:46:32][0,0] : StartAutoReconnect() will start in 11 seconds
[2018-07-28 11:46:43][1,11] : Connect() starting connection (eNetQOSLevelMedium, 208.111.158.53:27017, TCP)
[2018-07-28 11:46:43][1,11] : ConnectFailed('Invalid State') (208.111.158.53:27017, TCP)
[2018-07-28 11:46:43][0,0] : StartAutoReconnect() will start in 10 seconds
[2018-07-28 11:46:53][1,13] : Connect() starting connection (eNetQOSLevelMedium, 208.111.158.53:27017, TCP)
[2018-07-28 11:46:53][1,13] : ConnectFailed('Invalid State') (208.111.158.53:27017, TCP)
[2018-07-28 11:46:53][0,0] : StartAutoReconnect() will start in 8 seconds
[2018-07-28 11:47:01][1,16] : Connect() starting connection (eNetQOSLevelMedium, 208.111.158.53:27017, UDP)
[2018-07-28 11:47:06][1,16] : ConnectFailed('Connection Failed') (208.111.158.53:27017, UDP)
[2018-07-28 11:47:06][0,0] : StartAutoReconnect() will start in 16 seconds
[2018-07-28 11:47:22][1,18] : Connect() starting connection (eNetQOSLevelMedium, 208.111.158.53:27017, UDP)
[2018-07-28 11:47:27][1,18] : ConnectFailed('Connection Failed') (208.111.158.53:27017, UDP)
[2018-07-28 11:47:27][0,0] : StartAutoReconnect() will start in 365 seconds
[2018-07-28 11:47:27][0,0] : Log session ended


[2018-07-30 17:30:43][0,0] : Log session started
[2018-07-30 17:30:43][0,0] : SetSteamID( [A:1:0:0] )
[2018-07-30 17:30:43][1,2] : Connect() starting connection (eNetQOSLevelLow, 208.111.133.85:27017, UDP)
[2018-07-30 17:30:48][1,2] : ConnectFailed('Connection Failed') (208.111.133.85:27017, UDP)
[2018-07-30 17:30:48][0,0] : StartAutoReconnect() will start in 2 seconds
[2018-07-30 17:30:50][1,6] : Connect() starting connection (eNetQOSLevelMedium, 208.111.133.85:27017, UDP)
[2018-07-30 17:30:55][1,6] : ConnectFailed('Connection Failed') (208.111.133.85:27017, UDP)
[2018-07-30 17:30:55][0,0] : StartAutoReconnect() will start in 3 seconds
[2018-07-30 17:30:58][1,8] : Connect() starting connection (eNetQOSLevelMedium, 208.111.133.85:27017, UDP)
[2018-07-30 17:31:03][1,8] : ConnectFailed('Connection Failed') (208.111.133.85:27017, UDP)
[2018-07-30 17:31:03][0,0] : StartAutoReconnect() will start in 2 seconds
[2018-07-30 17:31:05][1,10] : Connect() starting connection (eNetQOSLevelMedium, 208.111.133.85:27017, UDP)
[2018-07-30 17:31:10][1,10] : ConnectFailed('Connection Failed') (208.111.133.85:27017, UDP)
[2018-07-30 17:31:10][0,0] : StartAutoReconnect() will start in 9 seconds
[2018-07-30 17:31:19][1,11] : Connect() starting connection (eNetQOSLevelMedium, 208.111.133.85:27017, TCP)
[2018-07-30 17:31:19][1,11] : ConnectFailed('Invalid State') (208.111.133.85:27017, TCP)
[2018-07-30 17:31:19][0,0] : StartAutoReconnect() will start in 5 seconds
[2018-07-30 17:31:25][1,13] : Connect() starting connection (eNetQOSLevelMedium, 208.111.133.85:27017, TCP)
[2018-07-30 17:31:25][1,13] : ConnectFailed('Invalid State') (208.111.133.85:27017, TCP)
[2018-07-30 17:31:25][0,0] : StartAutoReconnect() will start in 6 seconds
[2018-07-30 17:31:31][1,16] : Connect() starting connection (eNetQOSLevelMedium, 208.111.133.85:27017, UDP)
[2018-07-30 17:31:36][1,16] : ConnectFailed('Connection Failed') (208.111.133.85:27017, UDP)
[2018-07-30 17:31:36][0,0] : StartAutoReconnect() will start in 11 seconds
[2018-07-30 17:31:47][1,18] : Connect() starting connection (eNetQOSLevelMedium, 208.111.133.85:27017, UDP)
[2018-07-30 17:31:52][1,18] : ConnectFailed('Connection Failed') (208.111.133.85:27017, UDP)
[2018-07-30 17:31:52][0,0] : StartAutoReconnect() will start in 15 seconds
[2018-07-30 17:32:07][1,20] : Connect() starting connection (eNetQOSLevelMedium, 208.111.133.85:27017, UDP)
[2018-07-30 17:32:12][1,20] : ConnectFailed('Connection Failed') (208.111.133.85:27017, UDP)
[2018-07-30 17:32:12][0,0] : StartAutoReconnect() will start in 21 seconds
[2018-07-30 17:32:33][1,22] : Connect() starting connection (eNetQOSLevelMedium, 208.111.133.85:27017, UDP)
[2018-07-30 17:32:38][1,22] : ConnectFailed('Connection Failed') (208.111.133.85:27017, UDP)
[2018-07-30 17:32:38][0,0] : StartAutoReconnect() will start in 51 seconds
[2018-07-30 17:33:29][1,23] : Connect() starting connection (eNetQOSLevelMedium, 208.111.133.85:27017, TCP)
[2018-07-30 17:33:29][1,23] : ConnectFailed('Invalid State') (208.111.133.85:27017, TCP)
[2018-07-30 17:33:29][0,0] : StartAutoReconnect() will start in 79 seconds
[2018-07-30 17:34:48][1,25] : Connect() starting connection (eNetQOSLevelMedium, 208.111.133.85:27017, TCP)
[2018-07-30 17:34:48][1,25] : ConnectFailed('Invalid State') (208.111.133.85:27017, TCP)
[2018-07-30 17:34:48][0,0] : StartAutoReconnect() will start in 115 seconds
[2018-07-30 17:36:43][1,28] : Connect() starting connection (eNetQOSLevelMedium, 208.111.133.85:27017, UDP)
[2018-07-30 17:36:48][1,28] : ConnectFailed('Connection Failed') (208.111.133.85:27017, UDP)
[2018-07-30 17:36:48][0,0] : StartAutoReconnect() will start in 106 seconds
[2018-07-30 17:38:34][1,30] : Connect() starting connection (eNetQOSLevelMedium, 208.111.133.85:27017, UDP)
[2018-07-30 17:38:39][1,30] : ConnectFailed('Connection Failed') (208.111.133.85:27017, UDP)
[2018-07-30 17:38:39][0,0] : StartAutoReconnect() will start in 78 seconds
[2018-07-30 17:39:57][1,32] : Connect() starting connection (eNetQOSLevelMedium, 208.111.133.85:27017, UDP)
[2018-07-30 17:40:02][1,32] : ConnectFailed('Connection Failed') (208.111.133.85:27017, UDP)
[2018-07-30 17:40:02][0,0] : StartAutoReconnect() will start in 96 seconds
[2018-07-30 17:41:38][1,34] : Connect() starting connection (eNetQOSLevelMedium, 208.111.133.85:27017, UDP)
[2018-07-30 17:41:43][1,34] : ConnectFailed('Connection Failed') (208.111.133.85:27017, UDP)
[2018-07-30 17:41:43][0,0] : StartAutoReconnect() will start in 144 seconds
[2018-07-30 17:44:07][1,35] : Connect() starting connection (eNetQOSLevelMedium, 208.111.133.85:27017, TCP)
[2018-07-30 17:44:07][1,35] : ConnectFailed('Invalid State') (208.111.133.85:27017, TCP)
[2018-07-30 17:44:07][0,0] : StartAutoReconnect() will start in 160 seconds
[2018-07-30 17:46:47][1,37] : Connect() starting connection (eNetQOSLevelMedium, 208.111.133.85:27017, TCP)
[2018-07-30 17:46:47][1,37] : ConnectFailed('Invalid State') (208.111.133.85:27017, TCP)
[2018-07-30 17:46:47][0,0] : StartAutoReconnect() will start in 106 seconds
[2018-07-30 17:48:33][1,40] : Connect() starting connection (eNetQOSLevelMedium, 208.111.133.85:27017, UDP)
[2018-07-30 17:48:38][1,40] : ConnectFailed('Connection Failed') (208.111.133.85:27017, UDP)
[2018-07-30 17:48:38][0,0] : StartAutoReconnect() will start in 170 seconds
[2018-07-30 17:51:28][1,42] : Connect() starting connection (eNetQOSLevelMedium, 208.111.133.85:27017, UDP)
[2018-07-30 17:51:33][1,42] : ConnectFailed('Connection Failed') (208.111.133.85:27017, UDP)
[2018-07-30 17:51:33][0,0] : StartAutoReconnect() will start in 159 seconds
[2018-07-30 17:54:12][1,44] : Connect() starting connection (eNetQOSLevelMedium, 208.111.133.85:27017, UDP)
[2018-07-30 17:54:17][1,44] : ConnectFailed('Connection Failed') (208.111.133.85:27017, UDP)
[2018-07-30 17:54:17][0,0] : StartAutoReconnect() will start in 91 seconds
[2018-07-30 17:55:48][1,46] : Connect() starting connection (eNetQOSLevelMedium, 208.111.133.85:27017, UDP)
[2018-07-30 17:55:53][1,46] : ConnectFailed('Connection Failed') (208.111.133.85:27017, UDP)
[2018-07-30 17:55:53][0,0] : StartAutoReconnect() will start in 60 seconds
[2018-07-30 17:56:53][1,47] : Connect() starting connection (eNetQOSLevelMedium, 208.111.133.85:27017, TCP)
[2018-07-30 17:56:53][1,47] : ConnectFailed('Invalid State') (208.111.133.85:27017, TCP)
[2018-07-30 17:56:53][0,0] : StartAutoReconnect() will start in 147 seconds
[2018-07-30 17:59:20][1,49] : Connect() starting connection (eNetQOSLevelMedium, 208.111.133.85:27017, TCP)
[2018-07-30 17:59:20][1,49] : ConnectFailed('Invalid State') (208.111.133.85:27017, TCP)
[2018-07-30 17:59:20][0,0] : StartAutoReconnect() will start in 170 seconds
[2018-07-30 18:02:11][1,52] : Connect() starting connection (eNetQOSLevelMedium, 208.111.133.85:27017, UDP)
[2018-07-30 18:02:16][1,52] : ConnectFailed('Connection Failed') (208.111.133.85:27017, UDP)
[2018-07-30 18:02:16][0,0] : StartAutoReconnect() will start in 176 seconds
[2018-07-30 18:05:12][1,54] : Connect() starting connection (eNetQOSLevelMedium, 208.111.133.85:27017, UDP)
[2018-07-30 18:05:17][1,54] : ConnectFailed('Connection Failed') (208.111.133.85:27017, UDP)
[2018-07-30 18:05:17][0,0] : StartAutoReconnect() will start in 131 seconds
[2018-07-30 18:07:28][1,56] : Connect() starting connection (eNetQOSLevelMedium, 208.111.133.85:27017, UDP)
[2018-07-30 18:07:33][1,56] : ConnectFailed('Connection Failed') (208.111.133.85:27017, UDP)
[2018-07-30 18:07:33][0,0] : StartAutoReconnect() will start in 157 seconds
[2018-07-30 18:10:10][1,58] : Connect() starting connection (eNetQOSLevelMedium, 208.111.133.85:27017, UDP)
[2018-07-30 18:10:15][1,58] : ConnectFailed('Connection Failed') (208.111.133.85:27017, UDP)
[2018-07-30 18:10:15][0,0] : StartAutoReconnect() will start in 75 seconds
[2018-07-30 18:11:30][1,59] : Connect() starting connection (eNetQOSLevelMedium, 208.111.133.85:27017, TCP)
[2018-07-30 18:11:30][1,59] : ConnectFailed('Invalid State') (208.111.133.85:27017, TCP)
[2018-07-30 18:11:30][0,0] : StartAutoReconnect() will start in 144 seconds
[2018-07-30 18:13:54][1,61] : Connect() starting connection (eNetQOSLevelMedium, 208.111.133.85:27017, TCP)
[2018-07-30 18:13:54][1,61] : ConnectFailed('Invalid State') (208.111.133.85:27017, TCP)
[2018-07-30 18:13:54][0,0] : StartAutoReconnect() will start in 114 seconds
[2018-07-30 18:15:48][1,64] : Connect() starting connection (eNetQOSLevelMedium, 208.111.133.85:27017, UDP)
[2018-07-30 18:15:53][1,64] : ConnectFailed('Connection Failed') (208.111.133.85:27017, UDP)
[2018-07-30 18:15:53][0,0] : StartAutoReconnect() will start in 70 seconds
[2018-07-30 18:17:03][1,66] : Connect() starting connection (eNetQOSLevelMedium, 208.111.133.85:27017, UDP)
[2018-07-30 18:17:08][1,66] : ConnectFailed('Connection Failed') (208.111.133.85:27017, UDP)
[2018-07-30 18:17:08][0,0] : StartAutoReconnect() will start in 134 seconds
[2018-07-30 18:19:22][1,68] : Connect() starting connection (eNetQOSLevelMedium, 208.111.133.85:27017, UDP)
[2018-07-30 18:19:27][1,68] : ConnectFailed('Connection Failed') (208.111.133.85:27017, UDP)


[2018-07-31 12:31:59][0,0] : Log session started
[2018-07-31 12:31:59][0,0] : SetSteamID( [A:1:0:0] )
[2018-07-31 12:31:59][1,2] : Connect() starting connection (eNetQOSLevelLow, 72.165.61.185:27017, UDP)
[2018-07-31 12:32:04][1,2] : ConnectFailed('Connection Failed') (72.165.61.185:27017, UDP)
[2018-07-31 12:32:04][0,0] : StartAutoReconnect() will start in 6 seconds
[2018-07-31 12:32:10][1,6] : Connect() starting connection (eNetQOSLevelMedium, 72.165.61.185:27017, UDP)
[2018-07-31 12:32:15][1,6] : ConnectFailed('Connection Failed') (72.165.61.185:27017, UDP)
[2018-07-31 12:32:15][0,0] : StartAutoReconnect() will start in 6 seconds
[2018-07-31 12:32:21][1,8] : Connect() starting connection (eNetQOSLevelMedium, 72.165.61.185:27017, UDP)
[2018-07-31 12:32:26][1,8] : ConnectFailed('Connection Failed') (72.165.61.185:27017, UDP)
[2018-07-31 12:32:26][0,0] : StartAutoReconnect() will start in 6 seconds
[2018-07-31 12:32:32][1,10] : Connect() starting connection (eNetQOSLevelMedium, 72.165.61.185:27017, UDP)
[2018-07-31 12:32:37][1,10] : ConnectFailed('Connection Failed') (72.165.61.185:27017, UDP)
[2018-07-31 12:32:37][0,0] : StartAutoReconnect() will start in 14 seconds
[2018-07-31 12:32:51][1,11] : Connect() starting connection (eNetQOSLevelMedium, 72.165.61.185:27017, TCP)
[2018-07-31 12:32:51][1,11] : ConnectFailed('Invalid State') (72.165.61.185:27017, TCP)
[2018-07-31 12:32:51][0,0] : StartAutoReconnect() will start in 9 seconds
[2018-07-31 12:33:00][1,13] : Connect() starting connection (eNetQOSLevelMedium, 72.165.61.185:27017, TCP)
[2018-07-31 12:33:00][1,13] : ConnectFailed('Invalid State') (72.165.61.185:27017, TCP)
[2018-07-31 12:33:00][0,0] : StartAutoReconnect() will start in 7 seconds
[2018-07-31 12:33:07][1,16] : Connect() starting connection (eNetQOSLevelMedium, 72.165.61.185:27017, UDP)
[2018-07-31 12:33:12][1,16] : ConnectFailed('Connection Failed') (72.165.61.185:27017, UDP)
[2018-07-31 12:33:12][0,0] : StartAutoReconnect() will start in 23 seconds
[2018-07-31 12:33:35][1,18] : Connect() starting connection (eNetQOSLevelMedium, 72.165.61.185:27017, UDP)
[2018-07-31 12:33:40][1,18] : ConnectFailed('Connection Failed') (72.165.61.185:27017, UDP)
[2018-07-31 12:33:40][0,0] : StartAutoReconnect() will start in 29 seconds
[2018-07-31 12:34:09][1,20] : Connect() starting connection (eNetQOSLevelMedium, 72.165.61.185:27017, UDP)
[2018-07-31 12:34:14][1,20] : ConnectFailed('Connection Failed') (72.165.61.185:27017, UDP)
[2018-07-31 12:34:14][0,0] : StartAutoReconnect() will start in 20 seconds
[2018-07-31 12:34:34][1,22] : Connect() starting connection (eNetQOSLevelMedium, 72.165.61.185:27017, UDP)
[2018-07-31 12:34:39][1,22] : ConnectFailed('Connection Failed') (72.165.61.185:27017, UDP)
[2018-07-31 12:34:39][0,0] : StartAutoReconnect() will start in 45 seconds
[2018-07-31 12:35:24][1,23] : Connect() starting connection (eNetQOSLevelMedium, 72.165.61.185:27017, TCP)
[2018-07-31 12:35:24][1,23] : ConnectFailed('Invalid State') (72.165.61.185:27017, TCP)
[2018-07-31 12:35:24][0,0] : StartAutoReconnect() will start in 71 seconds
[2018-07-31 12:36:35][1,25] : Connect() starting connection (eNetQOSLevelMedium, 72.165.61.185:27017, TCP)
[2018-07-31 12:36:35][1,25] : ConnectFailed('Invalid State') (72.165.61.185:27017, TCP)
[2018-07-31 12:36:35][0,0] : StartAutoReconnect() will start in 67 seconds
[2018-07-31 12:37:42][1,28] : Connect() starting connection (eNetQOSLevelMedium, 72.165.61.185:27017, UDP)
[2018-07-31 12:37:47][1,28] : ConnectFailed('Connection Failed') (72.165.61.185:27017, UDP)
[2018-07-31 12:37:47][0,0] : StartAutoReconnect() will start in 92 seconds
[2018-07-31 12:39:20][1,30] : Connect() starting connection (eNetQOSLevelMedium, 72.165.61.185:27017, UDP)
[2018-07-31 12:39:25][1,30] : ConnectFailed('Connection Failed') (72.165.61.185:27017, UDP)
[2018-07-31 12:39:25][0,0] : StartAutoReconnect() will start in 177 seconds
[2018-07-31 12:42:22][1,32] : Connect() starting connection (eNetQOSLevelMedium, 72.165.61.185:27017, UDP)
[2018-07-31 12:42:27][1,32] : ConnectFailed('Connection Failed') (72.165.61.185:27017, UDP)
[2018-07-31 12:42:27][0,0] : StartAutoReconnect() will start in 158 seconds
[2018-07-31 12:45:05][1,34] : Connect() starting connection (eNetQOSLevelMedium, 72.165.61.185:27017, UDP)
[2018-07-31 12:45:10][1,34] : ConnectFailed('Connection Failed') (72.165.61.185:27017, UDP)
[2018-07-31 12:45:10][0,0] : StartAutoReconnect() will start in 94 seconds
[2018-07-31 12:46:44][1,35] : Connect() starting connection (eNetQOSLevelMedium, 72.165.61.185:27017, TCP)
[2018-07-31 12:46:44][1,35] : ConnectFailed('Invalid State') (72.165.61.185:27017, TCP)
[2018-07-31 12:46:44][0,0] : StartAutoReconnect() will start in 92 seconds
[2018-07-31 12:48:16][1,37] : Connect() starting connection (eNetQOSLevelMedium, 72.165.61.185:27017, TCP)
[2018-07-31 12:48:16][1,37] : ConnectFailed('Invalid State') (72.165.61.185:27017, TCP)
[2018-07-31 12:48:16][0,0] : StartAutoReconnect() will start in 131 seconds
[2018-07-31 12:50:27][1,40] : Connect() starting connection (eNetQOSLevelMedium, 72.165.61.185:27017, UDP)
[2018-07-31 12:50:32][1,40] : ConnectFailed('Connection Failed') (72.165.61.185:27017, UDP)
[2018-07-31 12:50:32][0,0] : StartAutoReconnect() will start in 75 seconds
[2018-07-31 12:51:47][1,42] : Connect() starting connection (eNetQOSLevelMedium, 72.165.61.185:27017, UDP)
[2018-07-31 12:51:52][1,42] : ConnectFailed('Connection Failed') (72.165.61.185:27017, UDP)
[2018-07-31 12:51:52][0,0] : StartAutoReconnect() will start in 122 seconds
[2018-07-31 12:53:54][1,44] : Connect() starting connection (eNetQOSLevelMedium, 72.165.61.185:27017, UDP)
[2018-07-31 12:53:59][1,44] : ConnectFailed('Connection Failed') (72.165.61.185:27017, UDP)
[2018-07-31 12:53:59][0,0] : StartAutoReconnect() will start in 154 seconds
[2018-07-31 12:56:33][1,46] : Connect() starting connection (eNetQOSLevelMedium, 72.165.61.185:27017, UDP)
[2018-07-31 12:56:38][1,46] : ConnectFailed('Connection Failed') (72.165.61.185:27017, UDP)
[2018-07-31 12:56:38][0,0] : StartAutoReconnect() will start in 77 seconds
[2018-07-31 12:57:55][1,47] : Connect() starting connection (eNetQOSLevelMedium, 72.165.61.185:27017, TCP)
[2018-07-31 12:57:55][1,47] : ConnectFailed('Invalid State') (72.165.61.185:27017, TCP)
[2018-07-31 12:57:55][0,0] : StartAutoReconnect() will start in 170 seconds
[2018-07-31 13:30:40][1,0] : Connect() starting connection (eNetQOSLevelLow, 72.165.61.185:27017, TCP)
[2018-07-31 13:30:51][1,0] : Log session ended


[2018-07-31 18:07:44][0,0] : Log session started
[2018-07-31 18:07:44][0,0] : SetSteamID( [A:1:0:0] )
[2018-07-31 18:07:44][1,2] : Connect() starting connection (eNetQOSLevelLow, 208.111.133.84:27017, UDP)
[2018-07-31 18:07:49][1,2] : ConnectFailed('Connection Failed') (208.111.133.84:27017, UDP)
[2018-07-31 18:07:49][0,0] : StartAutoReconnect() will start in 4 seconds
[2018-07-31 18:07:53][1,6] : Connect() starting connection (eNetQOSLevelMedium, 208.111.133.84:27017, UDP)
[2018-07-31 18:07:58][1,6] : ConnectFailed('Connection Failed') (208.111.133.84:27017, UDP)
[2018-07-31 18:07:58][0,0] : StartAutoReconnect() will start in 4 seconds
[2018-07-31 18:08:02][1,8] : Connect() starting connection (eNetQOSLevelMedium, 208.111.133.84:27017, UDP)
[2018-07-31 18:08:07][1,8] : ConnectFailed('Connection Failed') (208.111.133.84:27017, UDP)
[2018-07-31 18:08:07][0,0] : StartAutoReconnect() will start in 6 seconds
[2018-07-31 18:08:14][1,10] : Connect() starting connection (eNetQOSLevelMedium, 208.111.133.84:27017, UDP)
[2018-07-31 18:08:19][1,10] : ConnectFailed('Connection Failed') (208.111.133.84:27017, UDP)
[2018-07-31 18:08:19][0,0] : StartAutoReconnect() will start in 8 seconds
[2018-07-31 18:08:27][1,11] : Connect() starting connection (eNetQOSLevelMedium, 208.111.133.84:27017, TCP)
[2018-07-31 18:08:27][1,11] : ConnectFailed('Invalid State') (208.111.133.84:27017, TCP)
[2018-07-31 18:08:27][0,0] : StartAutoReconnect() will start in 10 seconds
[2018-07-31 18:08:37][1,13] : Connect() starting connection (eNetQOSLevelMedium, 208.111.133.84:27017, TCP)
[2018-07-31 18:08:37][1,13] : ConnectFailed('Invalid State') (208.111.133.84:27017, TCP)
[2018-07-31 18:08:37][0,0] : StartAutoReconnect() will start in 8 seconds
[2018-07-31 18:08:45][1,16] : Connect() starting connection (eNetQOSLevelMedium, 208.111.133.84:27017, UDP)
[2018-07-31 18:08:50][1,16] : ConnectFailed('Connection Failed') (208.111.133.84:27017, UDP)
[2018-07-31 18:08:50][0,0] : StartAutoReconnect() will start in 18 seconds
[2018-07-31 18:09:08][1,18] : Connect() starting connection (eNetQOSLevelMedium, 208.111.133.84:27017, UDP)
[2018-07-31 18:09:13][1,18] : ConnectFailed('Connection Failed') (208.111.133.84:27017, UDP)
[2018-07-31 18:09:13][0,0] : StartAutoReconnect() will start in 25 seconds
[2018-07-31 18:09:38][1,20] : Connect() starting connection (eNetQOSLevelMedium, 208.111.133.84:27017, UDP)
[2018-07-31 18:09:43][1,20] : ConnectFailed('Connection Failed') (208.111.133.84:27017, UDP)
[2018-07-31 18:09:43][0,0] : StartAutoReconnect() will start in 24 seconds
[2018-07-31 18:10:07][1,22] : Connect() starting connection (eNetQOSLevelMedium, 208.111.133.84:27017, UDP)
[2018-07-31 18:10:12][1,22] : ConnectFailed('Connection Failed') (208.111.133.84:27017, UDP)
[2018-07-31 18:10:12][0,0] : StartAutoReconnect() will start in 26 seconds
[2018-07-31 18:10:38][1,23] : Connect() starting connection (eNetQOSLevelMedium, 208.111.133.84:27017, TCP)
[2018-07-31 18:10:38][1,23] : ConnectFailed('Invalid State') (208.111.133.84:27017, TCP)
[2018-07-31 18:10:38][0,0] : StartAutoReconnect() will start in 31 seconds
[2018-07-31 18:11:09][1,25] : Connect() starting connection (eNetQOSLevelMedium, 208.111.133.84:27017, TCP)
[2018-07-31 18:11:09][1,25] : ConnectFailed('Invalid State') (208.111.133.84:27017, TCP)
[2018-07-31 18:11:09][0,0] : StartAutoReconnect() will start in 104 seconds
[2018-07-31 18:12:53][1,28] : Connect() starting connection (eNetQOSLevelMedium, 208.111.133.84:27017, UDP)
[2018-07-31 18:12:58][1,28] : ConnectFailed('Connection Failed') (208.111.133.84:27017, UDP)
[2018-07-31 18:12:58][0,0] : StartAutoReconnect() will start in 60 seconds
[2018-07-31 18:13:58][1,30] : Connect() starting connection (eNetQOSLevelMedium, 208.111.133.84:27017, UDP)
[2018-07-31 18:14:03][1,30] : ConnectFailed('Connection Failed') (208.111.133.84:27017, UDP)
[2018-07-31 18:14:03][0,0] : StartAutoReconnect() will start in 166 seconds
[2018-07-31 18:16:49][1,32] : Connect() starting connection (eNetQOSLevelMedium, 208.111.133.84:27017, UDP)
[2018-07-31 18:16:54][1,32] : ConnectFailed('Connection Failed') (208.111.133.84:27017, UDP)
[2018-07-31 18:16:54][0,0] : StartAutoReconnect() will start in 60 seconds
[2018-07-31 18:17:54][1,34] : Connect() starting connection (eNetQOSLevelMedium, 208.111.133.84:27017, UDP)
[2018-07-31 18:17:59][1,34] : ConnectFailed('Connection Failed') (208.111.133.84:27017, UDP)
[2018-07-31 18:17:59][0,0] : StartAutoReconnect() will start in 118 seconds
[2018-07-31 18:19:57][1,35] : Connect() starting connection (eNetQOSLevelMedium, 208.111.133.84:27017, TCP)
[2018-07-31 18:19:57][1,35] : ConnectFailed('Invalid State') (208.111.133.84:27017, TCP)
[2018-07-31 18:19:57][0,0] : StartAutoReconnect() will start in 121 seconds
[2018-07-31 18:21:58][1,37] : Connect() starting connection (eNetQOSLevelMedium, 208.111.133.84:27017, TCP)
[2018-07-31 18:21:58][1,37] : ConnectFailed('Invalid State') (208.111.133.84:27017, TCP)
[2018-07-31 18:21:58][0,0] : StartAutoReconnect() will start in 102 seconds
[2018-07-31 18:23:40][1,40] : Connect() starting connection (eNetQOSLevelMedium, 208.111.133.84:27017, UDP)
[2018-07-31 18:23:45][1,40] : ConnectFailed('Connection Failed') (208.111.133.84:27017, UDP)
[2018-07-31 18:23:45][0,0] : StartAutoReconnect() will start in 158 seconds
[2018-07-31 18:26:23][1,42] : Connect() starting connection (eNetQOSLevelMedium, 208.111.133.84:27017, UDP)
[2018-07-31 18:26:28][1,42] : ConnectFailed('Connection Failed') (208.111.133.84:27017, UDP)
[2018-07-31 18:26:28][0,0] : StartAutoReconnect() will start in 112 seconds
[2018-07-31 18:28:20][1,44] : Connect() starting connection (eNetQOSLevelMedium, 208.111.133.84:27017, UDP)
[2018-07-31 18:28:25][1,44] : ConnectFailed('Connection Failed') (208.111.133.84:27017, UDP)
[2018-07-31 18:28:25][0,0] : StartAutoReconnect() will start in 132 seconds
[2018-07-31 18:30:37][1,46] : Connect() starting connection (eNetQOSLevelMedium, 208.111.133.84:27017, UDP)
[2018-07-31 18:30:43][1,46] : ConnectFailed('Connection Failed') (208.111.133.84:27017, UDP)
[2018-07-31 18:30:43][0,0] : StartAutoReconnect() will start in 151 seconds
[2018-07-31 18:33:14][1,47] : Connect() starting connection (eNetQOSLevelMedium, 208.111.133.84:27017, TCP)
[2018-07-31 18:33:14][1,47] : ConnectFailed('Invalid State') (208.111.133.84:27017, TCP)
[2018-07-31 18:33:14][0,0] : StartAutoReconnect() will start in 126 seconds
[2018-07-31 18:35:20][1,49] : Connect() starting connection (eNetQOSLevelMedium, 208.111.133.84:27017, TCP)
[2018-07-31 18:35:20][1,49] : ConnectFailed('Invalid State') (208.111.133.84:27017, TCP)
[2018-07-31 18:35:20][0,0] : StartAutoReconnect() will start in 130 seconds
[2018-07-31 18:37:30][1,52] : Connect() starting connection (eNetQOSLevelMedium, 208.111.133.84:27017, UDP)
[2018-07-31 18:37:35][1,52] : ConnectFailed('Connection Failed') (208.111.133.84:27017, UDP)
[2018-07-31 18:37:35][0,0] : StartAutoReconnect() will start in 168 seconds
[2018-07-31 18:40:23][1,54] : Connect() starting connection (eNetQOSLevelMedium, 208.111.133.84:27017, UDP)
[2018-07-31 18:40:28][1,54] : ConnectFailed('Connection Failed') (208.111.133.84:27017, UDP)
[2018-07-31 18:40:28][0,0] : StartAutoReconnect() will start in 169 seconds
[2018-07-31 18:43:17][1,56] : Connect() starting connection (eNetQOSLevelMedium, 208.111.133.84:27017, UDP)
[2018-07-31 18:43:22][1,56] : ConnectFailed('Connection Failed') (208.111.133.84:27017, UDP)
[2018-07-31 18:43:22][0,0] : StartAutoReconnect() will start in 178 seconds
[2018-07-31 18:46:20][1,58] : Connect() starting connection (eNetQOSLevelMedium, 208.111.133.84:27017, UDP)
[2018-07-31 18:46:25][1,58] : ConnectFailed('Connection Failed') (208.111.133.84:27017, UDP)
[2018-07-31 18:46:25][0,0] : StartAutoReconnect() will start in 83 seconds
[2018-07-31 18:47:48][1,59] : Connect() starting connection (eNetQOSLevelMedium, 208.111.133.84:27017, TCP)
[2018-07-31 18:47:48][1,59] : ConnectFailed('Invalid State') (208.111.133.84:27017, TCP)
[2018-07-31 18:47:48][0,0] : StartAutoReconnect() will start in 98 seconds
[2018-07-31 18:49:26][1,61] : Connect() starting connection (eNetQOSLevelMedium, 208.111.133.84:27017, TCP)
[2018-07-31 18:49:26][1,61] : ConnectFailed('Invalid State') (208.111.133.84:27017, TCP)
[2018-07-31 18:49:26][0,0] : StartAutoReconnect() will start in 102 seconds
[2018-07-31 18:51:08][1,64] : Connect() starting connection (eNetQOSLevelMedium, 208.111.133.84:27017, UDP)
[2018-07-31 18:51:13][1,64] : ConnectFailed('Connection Failed') (208.111.133.84:27017, UDP)
[2018-07-31 18:51:13][0,0] : StartAutoReconnect() will start in 146 seconds
[2018-07-31 18:53:39][1,66] : Connect() starting connection (eNetQOSLevelMedium, 208.111.133.84:27017, UDP)
[2018-07-31 18:53:44][1,66] : ConnectFailed('Connection Failed') (208.111.133.84:27017, UDP)
[2018-07-31 18:53:44][0,0] : StartAutoReconnect() will start in 101 seconds
[2018-07-31 18:55:25][1,68] : Connect() starting connection (eNetQOSLevelMedium, 208.111.133.84:27017, UDP)
[2018-07-31 18:55:30][1,68] : ConnectFailed('Connection Failed') (208.111.133.84:27017, UDP)
[2018-07-31 18:55:30][0,0] : StartAutoReconnect() will start in 62 seconds
[2018-07-31 18:56:32][1,70] : Connect() starting connection (eNetQOSLevelMedium, 208.111.133.84:27017, UDP)
[2018-07-31 18:56:37][1,70] : ConnectFailed('Connection Failed') (208.111.133.84:27017, UDP)
[2018-07-31 18:56:37][0,0] : StartAutoReconnect() will start in 100 seconds
[2018-07-31 18:58:17][1,71] : Connect() starting connection (eNetQOSLevelMedium, 208.111.133.84:27017, TCP)
[2018-07-31 18:58:17][1,71] : ConnectFailed('Invalid State') (208.111.133.84:27017, TCP)
[2018-07-31 18:58:17][0,0] : StartAutoReconnect() will start in 162 seconds
[2018-07-31 19:00:59][1,73] : Connect() starting connection (eNetQOSLevelMedium, 208.111.133.84:27017, TCP)
[2018-07-31 19:00:59][1,73] : ConnectFailed('Invalid State') (208.111.133.84:27017, TCP)
[2018-07-31 19:00:59][0,0] : StartAutoReconnect() will start in 79 seconds
[2018-07-31 19:02:18][1,76] : Connect() starting connection (eNetQOSLevelMedium, 208.111.133.84:27017, UDP)
[2018-07-31 19:02:23][1,76] : ConnectFailed('Connection Failed') (208.111.133.84:27017, UDP)
[2018-07-31 19:02:23][0,0] : StartAutoReconnect() will start in 160 seconds
[2018-07-31 19:05:03][1,78] : Connect() starting connection (eNetQOSLevelMedium, 208.111.133.84:27017, UDP)
[2018-07-31 19:05:08][1,78] : ConnectFailed('Connection Failed') (208.111.133.84:27017, UDP)
[2018-07-31 19:05:08][0,0] : StartAutoReconnect() will start in 65 seconds
[2018-07-31 19:06:13][1,80] : Connect() starting connection (eNetQOSLevelMedium, 208.111.133.84:27017, UDP)
[2018-07-31 19:06:18][1,80] : ConnectFailed('Connection Failed') (208.111.133.84:27017, UDP)
[2018-07-31 19:06:18][0,0] : StartAutoReconnect() will start in 169 seconds
[2018-07-31 19:09:07][1,82] : Connect() starting connection (eNetQOSLevelMedium, 208.111.133.84:27017, UDP)
[2018-07-31 19:09:12][1,82] : ConnectFailed('Connection Failed') (208.111.133.84:27017, UDP)
[2018-07-31 19:09:12][0,0] : StartAutoReconnect() will start in 172 seconds
[2018-07-31 19:12:04][1,83] : Connect() starting connection (eNetQOSLevelMedium, 208.111.133.84:27017, TCP)
[2018-07-31 19:12:04][1,83] : ConnectFailed('Invalid State') (208.111.133.84:27017, TCP)
[2018-07-31 19:12:04][0,0] : StartAutoReconnect() will start in 143 seconds
[2018-07-31 19:14:27][1,85] : Connect() starting connection (eNetQOSLevelMedium, 208.111.133.84:27017, TCP)
[2018-07-31 19:14:27][1,85] : ConnectFailed('Invalid State') (208.111.133.84:27017, TCP)
[2018-07-31 19:14:27][0,0] : StartAutoReconnect() will start in 94 seconds
[2018-07-31 19:16:01][1,88] : Connect() starting connection (eNetQOSLevelMedium, 208.111.133.84:27017, UDP)
[2018-07-31 19:16:07][1,88] : ConnectFailed('Connection Failed') (208.111.133.84:27017, UDP)
[2018-07-31 19:16:07][0,0] : StartAutoReconnect() will start in 164 seconds
[2018-07-31 19:18:51][1,90] : Connect() starting connection (eNetQOSLevelMedium, 208.111.133.84:27017, UDP)
[2018-07-31 19:18:56][1,90] : ConnectFailed('Connection Failed') (208.111.133.84:27017, UDP)
